EESchema Schematic File Version 2
LIBS:power
LIBS:MyKiCadLibs-Lib
LIBS:dev-AmpTwo-cache
EELAYER 25 0
EELAYER END
$Descr A3 16535 11693
encoding utf-8
Sheet 3 3
Title "AmpOne - Class D Amp Module"
Date "2017-02-14"
Rev "1.0"
Comp "Open Hardware DSP Platform - www.ohdsp.org"
Comment1 "MERCHANTABILITY, SATISFACTORY QUALITY AND FITNESS FOR A PARTICULAR PURPOSE."
Comment2 "is distributed WITHOUT ANY EXPRESS OR IMPLIED WARRANTY, INCLUDING OF"
Comment3 "Licensed under the TAPR Open Hardware License (www.tapr.org/OHL). This documentation"
Comment4 "Copyright Paul Janicki 2017"
$EndDescr
Text Notes 800  850  0    118  ~ 0
Discrete Dual Stereo Headphone Amplifiers
Text Notes 800  1000 0    60   ~ 0
Overall gain set to 0dB
Text HLabel 2450 3650 0    60   Input ~ 0
IN_1
Text HLabel 2450 7800 0    60   Input ~ 0
IN_2
Text HLabel 8400 3650 0    60   Input ~ 0
IN_3
Text HLabel 8400 7800 0    60   Input ~ 0
IN_4
$Comp
L GNDD #PWR030
U 1 1 58B0FB1C
P 3500 4450
F 0 "#PWR030" H 3500 4200 50  0001 C CNN
F 1 "GNDD" H 3500 4300 50  0000 C CNN
F 2 "" H 3500 4450 50  0000 C CNN
F 3 "" H 3500 4450 50  0000 C CNN
	1    3500 4450
	1    0    0    -1  
$EndComp
$Comp
L C C307
U 1 1 58B0FB27
P 3200 4100
F 0 "C307" V 3150 3850 40  0000 L CNN
F 1 "220p" V 3150 4200 40  0000 L CNN
F 2 "MyKiCadLibs-Footprints:SMD-0805" H 3238 3950 30  0001 C CNN
F 3 "" H 3200 4200 60  0000 C CNN
F 4 "50V" V 3250 4200 40  0000 L CNN "Voltage"
F 5 "C0G" V 3250 3900 40  0000 L CNN "Type"
F 6 "Ceramic capacitor" H 3200 4400 40  0001 L CNN "Description"
F 7 "5%" H 3270 3735 40  0001 C CNN "Tolerance"
F 8 "0805" H 3210 3805 40  0001 L CNN "Size"
	1    3200 4100
	1    0    0    -1  
$EndComp
$Comp
L R R311
U 1 1 58B0FB32
P 3500 4100
F 0 "R311" V 3420 4100 40  0000 C CNN
F 1 "10k" V 3507 4101 40  0000 C CNN
F 2 "MyKiCadLibs-Footprints:SMD-1206" V 3430 4100 30  0001 C CNN
F 3 "" V 3420 4100 30  0000 C CNN
F 4 "250mW" V 3600 4100 40  0001 C CNN "Power"
F 5 "MELF0204 1% =>250mW or 1206 1% =>250mW" V 3745 4100 40  0001 C CNN "Description"
F 6 "1206" V 3675 4100 40  0001 C CNN "Size"
F 7 "1%" V 3825 4100 40  0001 C CNN "Tolerance"
	1    3500 4100
	1    0    0    -1  
$EndComp
$Comp
L R R307
U 1 1 58B10572
P 2800 3650
F 0 "R307" V 2720 3650 40  0000 C CNN
F 1 "10k" V 2807 3651 40  0000 C CNN
F 2 "MyKiCadLibs-Footprints:SMD-1206" V 2730 3650 30  0001 C CNN
F 3 "" V 2720 3650 30  0000 C CNN
F 4 "250mW" V 2900 3650 40  0001 C CNN "Power"
F 5 "MELF0204 1% =>250mW or 1206 1% =>250mW" V 3045 3650 40  0001 C CNN "Description"
F 6 "1206" V 2975 3650 40  0001 C CNN "Size"
F 7 "1%" V 3125 3650 40  0001 C CNN "Tolerance"
	1    2800 3650
	0    1    1    0   
$EndComp
$Comp
L R R309
U 1 1 58B11537
P 4000 3850
F 0 "R309" V 3920 3850 40  0000 C CNN
F 1 "10k" V 4007 3851 40  0000 C CNN
F 2 "MyKiCadLibs-Footprints:SMD-1206" V 3930 3850 30  0001 C CNN
F 3 "" V 3920 3850 30  0000 C CNN
F 4 "250mW" V 4100 3850 40  0001 C CNN "Power"
F 5 "MELF0204 1% =>250mW or 1206 1% =>250mW" V 4245 3850 40  0001 C CNN "Description"
F 6 "1206" V 4175 3850 40  0001 C CNN "Size"
F 7 "1%" V 4325 3850 40  0001 C CNN "Tolerance"
	1    4000 3850
	0    -1   1    0   
$EndComp
$Comp
L CP1 C311
U 1 1 58B12B7C
P 4300 5000
F 0 "C311" H 4175 5100 40  0000 R CNN
F 1 "220u" H 4175 5025 40  0000 R CNN
F 2 "MyKiCadLibs-Footprints:CAP-TH-D8mmP3.5mm" H 4250 5000 60  0001 C CNN
F 3 "" H 4300 5000 60  0000 C CNN
F 4 "35V" H 4175 4950 40  0000 R CNN "Voltage"
F 5 "Pitch 3.5mm, Diameter 8mm" H 4300 5300 40  0001 L CNN "Size"
F 6 "High quality capacitor, eg Panasonic FC" H 4300 5400 40  0001 L CNN "Description"
	1    4300 5000
	1    0    0    -1  
$EndComp
$Comp
L GNDD #PWR031
U 1 1 58B13183
P 4300 5300
F 0 "#PWR031" H 4300 5050 50  0001 C CNN
F 1 "GNDD" H 4300 5150 50  0000 C CNN
F 2 "" H 4300 5300 50  0000 C CNN
F 3 "" H 4300 5300 50  0000 C CNN
	1    4300 5300
	-1   0    0    -1  
$EndComp
$Comp
L R R319
U 1 1 58B1355A
P 4300 4450
F 0 "R319" V 4220 4450 40  0000 C CNN
F 1 "10k" V 4307 4451 40  0000 C CNN
F 2 "MyKiCadLibs-Footprints:SMD-1206" V 4230 4450 30  0001 C CNN
F 3 "" V 4220 4450 30  0000 C CNN
F 4 "250mW" V 4400 4450 40  0001 C CNN "Power"
F 5 "MELF0204 1% =>250mW or 1206 1% =>250mW" V 4545 4450 40  0001 C CNN "Description"
F 6 "1206" V 4475 4450 40  0001 C CNN "Size"
F 7 "1%" V 4625 4450 40  0001 C CNN "Tolerance"
	1    4300 4450
	-1   0    0    -1  
$EndComp
$Comp
L +9VA #PWR032
U 1 1 58B13BE0
P 5850 1950
F 0 "#PWR032" H 5850 1825 50  0001 C CNN
F 1 "+9VA" H 5850 2100 50  0000 C CNN
F 2 "" H 5850 1950 50  0000 C CNN
F 3 "" H 5850 1950 50  0000 C CNN
	1    5850 1950
	1    0    0    -1  
$EndComp
$Comp
L -9VA #PWR033
U 1 1 58B13CE0
P 5850 5400
F 0 "#PWR033" H 5850 5275 50  0001 C CNN
F 1 "-9VA" H 5850 5550 50  0000 C CNN
F 2 "" H 5850 5400 50  0000 C CNN
F 3 "" H 5850 5400 50  0000 C CNN
	1    5850 5400
	-1   0    0    1   
$EndComp
$Comp
L TRAN-NPN-PZTA42 TR301
U 1 1 58B25172
P 5650 2650
F 0 "TR301" H 6000 2700 60  0000 C CNN
F 1 "BCP56−16" H 6150 2600 60  0000 C CNN
F 2 "MyKiCadLibs-Footprints:IC-SOT-223" H 5650 2650 60  0001 C CNN
F 3 "" H 5650 2650 60  0000 C CNN
	1    5650 2650
	1    0    0    -1  
$EndComp
$Comp
L TRAN-PNP-PZTA92 TR303
U 1 1 58B256B1
P 5650 4700
F 0 "TR303" H 6000 4650 60  0000 C CNN
F 1 "BCP53−16" H 6150 4750 60  0000 C CNN
F 2 "MyKiCadLibs-Footprints:IC-SOT-223" H 5650 4700 60  0001 C CNN
F 3 "" H 5650 4700 60  0000 C CNN
	1    5650 4700
	1    0    0    1   
$EndComp
$Comp
L R R303
U 1 1 58B27D37
P 5850 3200
F 0 "R303" V 5770 3200 40  0000 C CNN
F 1 "10" V 5857 3201 40  0000 C CNN
F 2 "MyKiCadLibs-Footprints:SMD-1206" V 5780 3200 30  0001 C CNN
F 3 "" V 5770 3200 30  0000 C CNN
F 4 "250mW" V 5950 3200 40  0001 C CNN "Power"
F 5 "MELF0204 1% =>250mW or 1206 1% =>250mW" V 6095 3200 40  0001 C CNN "Description"
F 6 "1206" V 6025 3200 40  0001 C CNN "Size"
F 7 "1%" V 6175 3200 40  0001 C CNN "Tolerance"
	1    5850 3200
	1    0    0    -1  
$EndComp
$Comp
L R R313
U 1 1 58B2909A
P 5850 4150
F 0 "R313" V 5770 4150 40  0000 C CNN
F 1 "10" V 5857 4151 40  0000 C CNN
F 2 "MyKiCadLibs-Footprints:SMD-1206" V 5780 4150 30  0001 C CNN
F 3 "" V 5770 4150 30  0000 C CNN
F 4 "250mW" V 5950 4150 40  0001 C CNN "Power"
F 5 "MELF0204 1% =>250mW or 1206 1% =>250mW" V 6095 4150 40  0001 C CNN "Description"
F 6 "1206" V 6025 4150 40  0001 C CNN "Size"
F 7 "1%" V 6175 4150 40  0001 C CNN "Tolerance"
	1    5850 4150
	1    0    0    1   
$EndComp
$Comp
L C C305
U 1 1 58B2CCB0
P 4000 4050
F 0 "C305" V 3950 3800 40  0000 L CNN
F 1 "220p" V 3950 4150 40  0000 L CNN
F 2 "MyKiCadLibs-Footprints:SMD-0805" H 4038 3900 30  0001 C CNN
F 3 "" H 4000 4150 60  0000 C CNN
F 4 "50V" V 4050 4150 40  0000 L CNN "Voltage"
F 5 "C0G" V 4050 3850 40  0000 L CNN "Type"
F 6 "Ceramic capacitor" H 4000 4350 40  0001 L CNN "Description"
F 7 "5%" H 4070 3685 40  0001 C CNN "Tolerance"
F 8 "0805" H 4010 3755 40  0001 L CNN "Size"
	1    4000 4050
	0    1    1    0   
$EndComp
Wire Wire Line
	3500 4350 3500 4450
Wire Wire Line
	3200 4300 3200 4400
Wire Wire Line
	3200 4400 3500 4400
Connection ~ 3500 4400
Wire Wire Line
	3500 3650 3500 3850
Wire Wire Line
	3050 3650 4350 3650
Wire Wire Line
	3200 3900 3200 3650
Connection ~ 3500 3650
Connection ~ 3200 3650
Wire Wire Line
	2450 3650 2550 3650
Wire Wire Line
	4250 3850 4350 3850
Wire Wire Line
	4300 4700 4300 4800
Wire Wire Line
	4300 5300 4300 5200
Wire Wire Line
	4300 4200 4300 3850
Connection ~ 4300 3850
Wire Wire Line
	5850 1950 5850 2450
Connection ~ 5850 2050
Wire Wire Line
	5850 4900 5850 5400
Connection ~ 5850 5300
Wire Wire Line
	5850 3450 5850 3900
Wire Wire Line
	5850 4400 5850 4500
Wire Wire Line
	3750 3850 3700 3850
$Comp
L R R315
U 1 1 58B33F69
P 6700 4150
F 0 "R315" V 6620 4150 40  0000 C CNN
F 1 "10" V 6707 4151 40  0000 C CNN
F 2 "MyKiCadLibs-Footprints:SMD-1206" V 6630 4150 30  0001 C CNN
F 3 "" V 6620 4150 30  0000 C CNN
F 4 "250mW" V 6800 4150 40  0001 C CNN "Power"
F 5 "MELF0204 1% =>250mW or 1206 1% =>250mW" V 6945 4150 40  0001 C CNN "Description"
F 6 "1206" V 6875 4150 40  0001 C CNN "Size"
F 7 "1%" V 7025 4150 40  0001 C CNN "Tolerance"
	1    6700 4150
	1    0    0    1   
$EndComp
Wire Wire Line
	6700 3650 6700 3900
Wire Wire Line
	5850 3650 7200 3650
Connection ~ 5850 3650
$Comp
L C C309
U 1 1 58B353FF
P 6700 4700
F 0 "C309" V 6650 4450 40  0000 L CNN
F 1 "100n" V 6650 4800 40  0000 L CNN
F 2 "MyKiCadLibs-Footprints:CAP_TH_5mm_W3.5mm" H 6738 4550 30  0001 C CNN
F 3 "" H 6700 4800 60  0000 C CNN
F 4 "63V" V 6750 4800 40  0000 L CNN "Voltage"
F 5 "MKT" V 6750 4500 40  0000 L CNN "Type"
F 6 "Polyester film capacitor" H 6700 5000 40  0001 L CNN "Description"
F 7 "5%" H 6770 4335 40  0001 C CNN "Tolerance"
F 8 "5mm" H 6710 4405 40  0001 L CNN "Size"
	1    6700 4700
	-1   0    0    1   
$EndComp
$Comp
L GNDD #PWR034
U 1 1 58B36D27
P 6700 5000
F 0 "#PWR034" H 6700 4750 50  0001 C CNN
F 1 "GNDD" H 6700 4850 50  0000 C CNN
F 2 "" H 6700 5000 50  0000 C CNN
F 3 "" H 6700 5000 50  0000 C CNN
	1    6700 5000
	1    0    0    -1  
$EndComp
Wire Wire Line
	6700 5000 6700 4900
Wire Wire Line
	6700 4500 6700 4400
$Comp
L R R304
U 1 1 58B37C16
P 6200 3200
F 0 "R304" V 6120 3200 40  0000 C CNN
F 1 "10" V 6207 3201 40  0000 C CNN
F 2 "MyKiCadLibs-Footprints:SMD-1206" V 6130 3200 30  0001 C CNN
F 3 "" V 6120 3200 30  0000 C CNN
F 4 "250mW" V 6300 3200 40  0001 C CNN "Power"
F 5 "MELF0204 1% =>250mW or 1206 1% =>250mW" V 6445 3200 40  0001 C CNN "Description"
F 6 "1206" V 6375 3200 40  0001 C CNN "Size"
F 7 "1%" V 6525 3200 40  0001 C CNN "Tolerance"
	1    6200 3200
	1    0    0    -1  
$EndComp
$Comp
L R R314
U 1 1 58B37CBE
P 6100 4150
F 0 "R314" V 6020 4150 40  0000 C CNN
F 1 "10" V 6107 4151 40  0000 C CNN
F 2 "MyKiCadLibs-Footprints:SMD-1206" V 6030 4150 30  0001 C CNN
F 3 "" V 6020 4150 30  0000 C CNN
F 4 "250mW" V 6200 4150 40  0001 C CNN "Power"
F 5 "MELF0204 1% =>250mW or 1206 1% =>250mW" V 6345 4150 40  0001 C CNN "Description"
F 6 "1206" V 6275 4150 40  0001 C CNN "Size"
F 7 "1%" V 6425 4150 40  0001 C CNN "Tolerance"
	1    6100 4150
	1    0    0    1   
$EndComp
Wire Wire Line
	6100 3900 6100 3650
Connection ~ 6100 3650
Wire Wire Line
	6200 3450 6200 3650
Connection ~ 6200 3650
Wire Wire Line
	6200 2950 6200 2900
Wire Wire Line
	6200 2900 5850 2900
Connection ~ 5850 2900
Wire Wire Line
	6100 4400 6100 4450
Wire Wire Line
	6100 4450 5850 4450
Connection ~ 5850 4450
Wire Wire Line
	5850 2850 5850 2950
$Comp
L IC-OPAMP-SINGLE-SOIC8 U301
U 1 1 58AF3FE3
P 4850 3750
F 0 "U301" H 4900 4000 60  0000 L CNN
F 1 "TLE2081" H 4900 3900 60  0000 L CNN
F 2 "MyKiCadLibs-Footprints:IC_SOIC_8" H 4800 3900 60  0001 C CNN
F 3 "" H 4900 4000 60  0001 C CNN
	1    4850 3750
	1    0    0    -1  
$EndComp
$Comp
L DIODE D301
U 1 1 58AF4317
P 5500 3300
F 0 "D301" H 5500 3400 40  0000 C CNN
F 1 "1N4148W" H 5500 3200 40  0000 C CNN
F 2 "MyKiCadLibs-Footprints:DIODE-SOD-123" H 5500 3300 60  0001 C CNN
F 3 "" H 5500 3300 60  0000 C CNN
F 4 "Text description" H 5500 3150 40  0001 C CNN "Description"
	1    5500 3300
	0    1    1    0   
$EndComp
$Comp
L DIODE D303
U 1 1 58AF4972
P 5500 4100
F 0 "D303" H 5500 4200 40  0000 C CNN
F 1 "1N4148W" H 5500 4000 40  0000 C CNN
F 2 "MyKiCadLibs-Footprints:DIODE-SOD-123" H 5500 4100 60  0001 C CNN
F 3 "" H 5500 4100 60  0000 C CNN
F 4 "Text description" H 5500 3950 40  0001 C CNN "Description"
	1    5500 4100
	0    1    1    0   
$EndComp
Wire Wire Line
	4850 3400 4850 2050
Wire Wire Line
	4850 2050 5850 2050
Wire Wire Line
	4850 4100 4850 5300
Wire Wire Line
	4850 5300 5850 5300
Wire Wire Line
	5350 3750 5500 3750
Wire Wire Line
	5500 3500 5500 3900
Connection ~ 5500 3750
Wire Wire Line
	5500 4300 5500 4750
Wire Wire Line
	5500 4700 5650 4700
Wire Wire Line
	5500 2600 5500 3100
Wire Wire Line
	5500 2650 5650 2650
$Comp
L R R301
U 1 1 58AF5E6B
P 5500 2350
F 0 "R301" V 5420 2350 40  0000 C CNN
F 1 "4k7" V 5507 2351 40  0000 C CNN
F 2 "MyKiCadLibs-Footprints:SMD-1206" V 5430 2350 30  0001 C CNN
F 3 "" V 5420 2350 30  0000 C CNN
F 4 "250mW" V 5600 2350 40  0001 C CNN "Power"
F 5 "MELF0204 1% =>250mW or 1206 1% =>250mW" V 5745 2350 40  0001 C CNN "Description"
F 6 "1206" V 5675 2350 40  0001 C CNN "Size"
F 7 "1%" V 5825 2350 40  0001 C CNN "Tolerance"
	1    5500 2350
	1    0    0    -1  
$EndComp
Wire Wire Line
	5500 2100 5500 2050
Connection ~ 5500 2050
Connection ~ 5500 2650
$Comp
L R R321
U 1 1 58AF65DC
P 5500 5000
F 0 "R321" V 5420 5000 40  0000 C CNN
F 1 "4k7" V 5507 5001 40  0000 C CNN
F 2 "MyKiCadLibs-Footprints:SMD-1206" V 5430 5000 30  0001 C CNN
F 3 "" V 5420 5000 30  0000 C CNN
F 4 "250mW" V 5600 5000 40  0001 C CNN "Power"
F 5 "MELF0204 1% =>250mW or 1206 1% =>250mW" V 5745 5000 40  0001 C CNN "Description"
F 6 "1206" V 5675 5000 40  0001 C CNN "Size"
F 7 "1%" V 5825 5000 40  0001 C CNN "Tolerance"
	1    5500 5000
	1    0    0    -1  
$EndComp
Connection ~ 5500 4700
Wire Wire Line
	5500 5250 5500 5300
Connection ~ 5500 5300
Wire Wire Line
	3700 3850 3700 5650
Wire Wire Line
	3700 5650 6450 5650
Wire Wire Line
	6450 5650 6450 3650
Connection ~ 6450 3650
$Comp
L CP1 C301
U 1 1 58B02A5B
P 3900 2800
F 0 "C301" H 3775 2900 40  0000 R CNN
F 1 "220u" H 3775 2825 40  0000 R CNN
F 2 "MyKiCadLibs-Footprints:CAP-TH-D8mmP3.5mm" H 3850 2800 60  0001 C CNN
F 3 "" H 3900 2800 60  0000 C CNN
F 4 "35V" H 3775 2750 40  0000 R CNN "Voltage"
F 5 "Pitch 3.5mm, Diameter 8mm" H 3900 3100 40  0001 L CNN "Size"
F 6 "Aluminium electrolytic capacitor" H 3900 3200 40  0001 L CNN "Description"
	1    3900 2800
	-1   0    0    -1  
$EndComp
$Comp
L C C302
U 1 1 58B02A67
P 4300 2800
F 0 "C302" H 4250 2650 40  0000 R CNN
F 1 "100n" H 4250 2725 40  0000 R CNN
F 2 "MyKiCadLibs-Footprints:SMD-0805" H 4338 2650 30  0001 C CNN
F 3 "" H 4300 2900 60  0000 C CNN
F 4 "50V" H 4250 2950 40  0000 R CNN "Voltage"
F 5 "X7R" H 4250 2875 40  0000 R CNN "Type"
F 6 "Ceramic capacitor" H 4300 3100 40  0001 L CNN "Description"
F 7 "10%" H 4370 2435 40  0001 C CNN "Tolerance"
F 8 "0805" H 4310 2505 40  0001 L CNN "Size"
	1    4300 2800
	-1   0    0    1   
$EndComp
$Comp
L +9VA #PWR035
U 1 1 58B02A6E
P 3900 2450
F 0 "#PWR035" H 3900 2325 50  0001 C CNN
F 1 "+9VA" H 3900 2600 50  0000 C CNN
F 2 "" H 3900 2450 50  0000 C CNN
F 3 "" H 3900 2450 50  0000 C CNN
	1    3900 2450
	1    0    0    -1  
$EndComp
Wire Wire Line
	3900 2450 3900 2600
Wire Wire Line
	4300 2600 4300 2500
Wire Wire Line
	4300 2500 3900 2500
Connection ~ 3900 2500
$Comp
L -9VA #PWR036
U 1 1 58B02A78
P 3900 3100
F 0 "#PWR036" H 3900 2975 50  0001 C CNN
F 1 "-9VA" H 3900 3250 50  0000 C CNN
F 2 "" H 3900 3100 50  0000 C CNN
F 3 "" H 3900 3100 50  0000 C CNN
	1    3900 3100
	-1   0    0    1   
$EndComp
Wire Wire Line
	4300 3000 4300 3050
Wire Wire Line
	4300 3050 3900 3050
Wire Wire Line
	3900 3000 3900 3100
Connection ~ 3900 3050
Wire Wire Line
	4200 4050 4300 4050
Connection ~ 4300 4050
Wire Wire Line
	3800 4050 3700 4050
Connection ~ 3700 4050
$Comp
L GNDD #PWR037
U 1 1 58B0D7D1
P 3500 8600
F 0 "#PWR037" H 3500 8350 50  0001 C CNN
F 1 "GNDD" H 3500 8450 50  0000 C CNN
F 2 "" H 3500 8600 50  0000 C CNN
F 3 "" H 3500 8600 50  0000 C CNN
	1    3500 8600
	1    0    0    -1  
$EndComp
$Comp
L C C319
U 1 1 58B0D7DC
P 3200 8250
F 0 "C319" V 3150 8000 40  0000 L CNN
F 1 "220p" V 3150 8350 40  0000 L CNN
F 2 "MyKiCadLibs-Footprints:SMD-0805" H 3238 8100 30  0001 C CNN
F 3 "" H 3200 8350 60  0000 C CNN
F 4 "50V" V 3250 8350 40  0000 L CNN "Voltage"
F 5 "C0G" V 3250 8050 40  0000 L CNN "Type"
F 6 "Ceramic capacitor" H 3200 8550 40  0001 L CNN "Description"
F 7 "5%" H 3270 7885 40  0001 C CNN "Tolerance"
F 8 "0805" H 3210 7955 40  0001 L CNN "Size"
	1    3200 8250
	1    0    0    -1  
$EndComp
$Comp
L R R333
U 1 1 58B0D7E6
P 3500 8250
F 0 "R333" V 3420 8250 40  0000 C CNN
F 1 "10k" V 3507 8251 40  0000 C CNN
F 2 "MyKiCadLibs-Footprints:SMD-1206" V 3430 8250 30  0001 C CNN
F 3 "" V 3420 8250 30  0000 C CNN
F 4 "250mW" V 3600 8250 40  0001 C CNN "Power"
F 5 "MELF0204 1% =>250mW or 1206 1% =>250mW" V 3745 8250 40  0001 C CNN "Description"
F 6 "1206" V 3675 8250 40  0001 C CNN "Size"
F 7 "1%" V 3825 8250 40  0001 C CNN "Tolerance"
	1    3500 8250
	1    0    0    -1  
$EndComp
$Comp
L R R329
U 1 1 58B0D7F0
P 2800 7800
F 0 "R329" V 2720 7800 40  0000 C CNN
F 1 "10k" V 2807 7801 40  0000 C CNN
F 2 "MyKiCadLibs-Footprints:SMD-1206" V 2730 7800 30  0001 C CNN
F 3 "" V 2720 7800 30  0000 C CNN
F 4 "250mW" V 2900 7800 40  0001 C CNN "Power"
F 5 "MELF0204 1% =>250mW or 1206 1% =>250mW" V 3045 7800 40  0001 C CNN "Description"
F 6 "1206" V 2975 7800 40  0001 C CNN "Size"
F 7 "1%" V 3125 7800 40  0001 C CNN "Tolerance"
	1    2800 7800
	0    1    1    0   
$EndComp
$Comp
L R R331
U 1 1 58B0D7FA
P 4000 8000
F 0 "R331" V 3920 8000 40  0000 C CNN
F 1 "10k" V 4007 8001 40  0000 C CNN
F 2 "MyKiCadLibs-Footprints:SMD-1206" V 3930 8000 30  0001 C CNN
F 3 "" V 3920 8000 30  0000 C CNN
F 4 "250mW" V 4100 8000 40  0001 C CNN "Power"
F 5 "MELF0204 1% =>250mW or 1206 1% =>250mW" V 4245 8000 40  0001 C CNN "Description"
F 6 "1206" V 4175 8000 40  0001 C CNN "Size"
F 7 "1%" V 4325 8000 40  0001 C CNN "Tolerance"
	1    4000 8000
	0    -1   1    0   
$EndComp
$Comp
L GNDD #PWR038
U 1 1 58B0D809
P 4300 9450
F 0 "#PWR038" H 4300 9200 50  0001 C CNN
F 1 "GNDD" H 4300 9300 50  0000 C CNN
F 2 "" H 4300 9450 50  0000 C CNN
F 3 "" H 4300 9450 50  0000 C CNN
	1    4300 9450
	-1   0    0    -1  
$EndComp
$Comp
L R R341
U 1 1 58B0D813
P 4300 8600
F 0 "R341" V 4220 8600 40  0000 C CNN
F 1 "10k" V 4307 8601 40  0000 C CNN
F 2 "MyKiCadLibs-Footprints:SMD-1206" V 4230 8600 30  0001 C CNN
F 3 "" V 4220 8600 30  0000 C CNN
F 4 "250mW" V 4400 8600 40  0001 C CNN "Power"
F 5 "MELF0204 1% =>250mW or 1206 1% =>250mW" V 4545 8600 40  0001 C CNN "Description"
F 6 "1206" V 4475 8600 40  0001 C CNN "Size"
F 7 "1%" V 4625 8600 40  0001 C CNN "Tolerance"
	1    4300 8600
	-1   0    0    -1  
$EndComp
$Comp
L +9VA #PWR039
U 1 1 58B0D819
P 5850 6100
F 0 "#PWR039" H 5850 5975 50  0001 C CNN
F 1 "+9VA" H 5850 6250 50  0000 C CNN
F 2 "" H 5850 6100 50  0000 C CNN
F 3 "" H 5850 6100 50  0000 C CNN
	1    5850 6100
	1    0    0    -1  
$EndComp
$Comp
L -9VA #PWR040
U 1 1 58B0D81F
P 5850 9550
F 0 "#PWR040" H 5850 9425 50  0001 C CNN
F 1 "-9VA" H 5850 9700 50  0000 C CNN
F 2 "" H 5850 9550 50  0000 C CNN
F 3 "" H 5850 9550 50  0000 C CNN
	1    5850 9550
	-1   0    0    1   
$EndComp
$Comp
L R R325
U 1 1 58B0D835
P 5850 7350
F 0 "R325" V 5770 7350 40  0000 C CNN
F 1 "10" V 5857 7351 40  0000 C CNN
F 2 "MyKiCadLibs-Footprints:SMD-1206" V 5780 7350 30  0001 C CNN
F 3 "" V 5770 7350 30  0000 C CNN
F 4 "250mW" V 5950 7350 40  0001 C CNN "Power"
F 5 "MELF0204 1% =>250mW or 1206 1% =>250mW" V 6095 7350 40  0001 C CNN "Description"
F 6 "1206" V 6025 7350 40  0001 C CNN "Size"
F 7 "1%" V 6175 7350 40  0001 C CNN "Tolerance"
	1    5850 7350
	1    0    0    -1  
$EndComp
$Comp
L R R335
U 1 1 58B0D83F
P 5850 8300
F 0 "R335" V 5770 8300 40  0000 C CNN
F 1 "10" V 5857 8301 40  0000 C CNN
F 2 "MyKiCadLibs-Footprints:SMD-1206" V 5780 8300 30  0001 C CNN
F 3 "" V 5770 8300 30  0000 C CNN
F 4 "250mW" V 5950 8300 40  0001 C CNN "Power"
F 5 "MELF0204 1% =>250mW or 1206 1% =>250mW" V 6095 8300 40  0001 C CNN "Description"
F 6 "1206" V 6025 8300 40  0001 C CNN "Size"
F 7 "1%" V 6175 8300 40  0001 C CNN "Tolerance"
	1    5850 8300
	1    0    0    1   
$EndComp
$Comp
L C C317
U 1 1 58B0D84A
P 4000 8200
F 0 "C317" V 3950 7950 40  0000 L CNN
F 1 "220p" V 3950 8300 40  0000 L CNN
F 2 "MyKiCadLibs-Footprints:SMD-0805" H 4038 8050 30  0001 C CNN
F 3 "" H 4000 8300 60  0000 C CNN
F 4 "50V" V 4050 8300 40  0000 L CNN "Voltage"
F 5 "C0G" V 4050 8000 40  0000 L CNN "Type"
F 6 "Ceramic capacitor" H 4000 8500 40  0001 L CNN "Description"
F 7 "5%" H 4070 7835 40  0001 C CNN "Tolerance"
F 8 "0805" H 4010 7905 40  0001 L CNN "Size"
	1    4000 8200
	0    1    1    0   
$EndComp
Wire Wire Line
	3500 8500 3500 8600
Wire Wire Line
	3200 8450 3200 8550
Wire Wire Line
	3200 8550 3500 8550
Connection ~ 3500 8550
Wire Wire Line
	3500 7800 3500 8000
Wire Wire Line
	3050 7800 4350 7800
Wire Wire Line
	3200 8050 3200 7800
Connection ~ 3500 7800
Connection ~ 3200 7800
Wire Wire Line
	2450 7800 2550 7800
Wire Wire Line
	4250 8000 4350 8000
Wire Wire Line
	4300 8850 4300 8950
Wire Wire Line
	4300 9450 4300 9350
Wire Wire Line
	4300 8350 4300 8000
Connection ~ 4300 8000
Wire Wire Line
	5850 6100 5850 6600
Connection ~ 5850 6200
Wire Wire Line
	5850 9050 5850 9550
Connection ~ 5850 9450
Wire Wire Line
	5850 7600 5850 8050
Wire Wire Line
	5850 8550 5850 8650
Wire Wire Line
	3750 8000 3700 8000
$Comp
L R R337
U 1 1 58B0D86A
P 6700 8300
F 0 "R337" V 6620 8300 40  0000 C CNN
F 1 "10" V 6707 8301 40  0000 C CNN
F 2 "MyKiCadLibs-Footprints:SMD-1206" V 6630 8300 30  0001 C CNN
F 3 "" V 6620 8300 30  0000 C CNN
F 4 "250mW" V 6800 8300 40  0001 C CNN "Power"
F 5 "MELF0204 1% =>250mW or 1206 1% =>250mW" V 6945 8300 40  0001 C CNN "Description"
F 6 "1206" V 6875 8300 40  0001 C CNN "Size"
F 7 "1%" V 7025 8300 40  0001 C CNN "Tolerance"
	1    6700 8300
	1    0    0    1   
$EndComp
Wire Wire Line
	6700 6100 6700 8050
Wire Wire Line
	5850 7800 6700 7800
Connection ~ 5850 7800
$Comp
L C C321
U 1 1 58B0D878
P 6700 8850
F 0 "C321" V 6650 8600 40  0000 L CNN
F 1 "100n" V 6650 8950 40  0000 L CNN
F 2 "MyKiCadLibs-Footprints:CAP_TH_5mm_W3.5mm" H 6738 8700 30  0001 C CNN
F 3 "" H 6700 8950 60  0000 C CNN
F 4 "63V" V 6750 8950 40  0000 L CNN "Voltage"
F 5 "MKT" V 6750 8650 40  0000 L CNN "Type"
F 6 "Polyester film capacitor" H 6700 9150 40  0001 L CNN "Description"
F 7 "5%" H 6770 8485 40  0001 C CNN "Tolerance"
F 8 "5mm" H 6710 8555 40  0001 L CNN "Size"
	1    6700 8850
	-1   0    0    1   
$EndComp
$Comp
L GNDD #PWR041
U 1 1 58B0D87E
P 6700 9150
F 0 "#PWR041" H 6700 8900 50  0001 C CNN
F 1 "GNDD" H 6700 9000 50  0000 C CNN
F 2 "" H 6700 9150 50  0000 C CNN
F 3 "" H 6700 9150 50  0000 C CNN
	1    6700 9150
	1    0    0    -1  
$EndComp
Wire Wire Line
	6700 9150 6700 9050
Wire Wire Line
	6700 8650 6700 8550
$Comp
L R R326
U 1 1 58B0D88A
P 6200 7350
F 0 "R326" V 6120 7350 40  0000 C CNN
F 1 "10" V 6207 7351 40  0000 C CNN
F 2 "MyKiCadLibs-Footprints:SMD-1206" V 6130 7350 30  0001 C CNN
F 3 "" V 6120 7350 30  0000 C CNN
F 4 "250mW" V 6300 7350 40  0001 C CNN "Power"
F 5 "MELF0204 1% =>250mW or 1206 1% =>250mW" V 6445 7350 40  0001 C CNN "Description"
F 6 "1206" V 6375 7350 40  0001 C CNN "Size"
F 7 "1%" V 6525 7350 40  0001 C CNN "Tolerance"
	1    6200 7350
	1    0    0    -1  
$EndComp
$Comp
L R R336
U 1 1 58B0D894
P 6100 8300
F 0 "R336" V 6020 8300 40  0000 C CNN
F 1 "10" V 6107 8301 40  0000 C CNN
F 2 "MyKiCadLibs-Footprints:SMD-1206" V 6030 8300 30  0001 C CNN
F 3 "" V 6020 8300 30  0000 C CNN
F 4 "250mW" V 6200 8300 40  0001 C CNN "Power"
F 5 "MELF0204 1% =>250mW or 1206 1% =>250mW" V 6345 8300 40  0001 C CNN "Description"
F 6 "1206" V 6275 8300 40  0001 C CNN "Size"
F 7 "1%" V 6425 8300 40  0001 C CNN "Tolerance"
	1    6100 8300
	1    0    0    1   
$EndComp
Wire Wire Line
	6100 8050 6100 7800
Connection ~ 6100 7800
Wire Wire Line
	6200 7600 6200 7800
Connection ~ 6200 7800
Wire Wire Line
	6200 7100 6200 7050
Wire Wire Line
	6200 7050 5850 7050
Connection ~ 5850 7050
Wire Wire Line
	6100 8550 6100 8600
Wire Wire Line
	6100 8600 5850 8600
Connection ~ 5850 8600
Wire Wire Line
	5850 7000 5850 7100
$Comp
L IC-OPAMP-SINGLE-SOIC8 U303
U 1 1 58B0D8A5
P 4850 7900
F 0 "U303" H 4900 8150 60  0000 L CNN
F 1 "TLE2081" H 4900 8050 60  0000 L CNN
F 2 "MyKiCadLibs-Footprints:IC_SOIC_8" H 4800 8050 60  0001 C CNN
F 3 "" H 4900 8150 60  0001 C CNN
	1    4850 7900
	1    0    0    -1  
$EndComp
$Comp
L DIODE D305
U 1 1 58B0D8AC
P 5500 7450
F 0 "D305" H 5500 7550 40  0000 C CNN
F 1 "1N4148W" H 5500 7350 40  0000 C CNN
F 2 "MyKiCadLibs-Footprints:DIODE-SOD-123" H 5500 7450 60  0001 C CNN
F 3 "" H 5500 7450 60  0000 C CNN
F 4 "Text description" H 5500 7300 40  0001 C CNN "Description"
	1    5500 7450
	0    1    1    0   
$EndComp
$Comp
L DIODE D307
U 1 1 58B0D8B3
P 5500 8250
F 0 "D307" H 5500 8350 40  0000 C CNN
F 1 "1N4148W" H 5500 8150 40  0000 C CNN
F 2 "MyKiCadLibs-Footprints:DIODE-SOD-123" H 5500 8250 60  0001 C CNN
F 3 "" H 5500 8250 60  0000 C CNN
F 4 "Text description" H 5500 8100 40  0001 C CNN "Description"
	1    5500 8250
	0    1    1    0   
$EndComp
Wire Wire Line
	4850 7550 4850 6200
Wire Wire Line
	4850 6200 5850 6200
Wire Wire Line
	4850 8250 4850 9450
Wire Wire Line
	4850 9450 5850 9450
Wire Wire Line
	5350 7900 5500 7900
Wire Wire Line
	5500 7650 5500 8050
Connection ~ 5500 7900
Wire Wire Line
	5500 8450 5500 8900
Wire Wire Line
	5500 8850 5650 8850
Wire Wire Line
	5500 6750 5500 7250
Wire Wire Line
	5500 6800 5650 6800
$Comp
L R R323
U 1 1 58B0D8C8
P 5500 6500
F 0 "R323" V 5420 6500 40  0000 C CNN
F 1 "4k7" V 5507 6501 40  0000 C CNN
F 2 "MyKiCadLibs-Footprints:SMD-1206" V 5430 6500 30  0001 C CNN
F 3 "" V 5420 6500 30  0000 C CNN
F 4 "250mW" V 5600 6500 40  0001 C CNN "Power"
F 5 "MELF0204 1% =>250mW or 1206 1% =>250mW" V 5745 6500 40  0001 C CNN "Description"
F 6 "1206" V 5675 6500 40  0001 C CNN "Size"
F 7 "1%" V 5825 6500 40  0001 C CNN "Tolerance"
	1    5500 6500
	1    0    0    -1  
$EndComp
Wire Wire Line
	5500 6250 5500 6200
Connection ~ 5500 6200
Connection ~ 5500 6800
$Comp
L R R343
U 1 1 58B0D8D5
P 5500 9150
F 0 "R343" V 5420 9150 40  0000 C CNN
F 1 "4k7" V 5507 9151 40  0000 C CNN
F 2 "MyKiCadLibs-Footprints:SMD-1206" V 5430 9150 30  0001 C CNN
F 3 "" V 5420 9150 30  0000 C CNN
F 4 "250mW" V 5600 9150 40  0001 C CNN "Power"
F 5 "MELF0204 1% =>250mW or 1206 1% =>250mW" V 5745 9150 40  0001 C CNN "Description"
F 6 "1206" V 5675 9150 40  0001 C CNN "Size"
F 7 "1%" V 5825 9150 40  0001 C CNN "Tolerance"
	1    5500 9150
	1    0    0    -1  
$EndComp
Connection ~ 5500 8850
Wire Wire Line
	5500 9400 5500 9450
Connection ~ 5500 9450
Wire Wire Line
	3700 8000 3700 9800
Wire Wire Line
	3700 9800 6450 9800
Wire Wire Line
	6450 9800 6450 7800
Connection ~ 6450 7800
$Comp
L C C314
U 1 1 58B0D8F0
P 4300 6950
F 0 "C314" H 4250 6800 40  0000 R CNN
F 1 "100n" H 4250 6875 40  0000 R CNN
F 2 "MyKiCadLibs-Footprints:SMD-0805" H 4338 6800 30  0001 C CNN
F 3 "" H 4300 7050 60  0000 C CNN
F 4 "50V" H 4250 7100 40  0000 R CNN "Voltage"
F 5 "X7R" H 4250 7025 40  0000 R CNN "Type"
F 6 "Ceramic capacitor" H 4300 7250 40  0001 L CNN "Description"
F 7 "10%" H 4370 6585 40  0001 C CNN "Tolerance"
F 8 "0805" H 4310 6655 40  0001 L CNN "Size"
	1    4300 6950
	-1   0    0    1   
$EndComp
$Comp
L +9VA #PWR042
U 1 1 58B0D8F6
P 4300 6650
F 0 "#PWR042" H 4300 6525 50  0001 C CNN
F 1 "+9VA" H 4300 6800 50  0000 C CNN
F 2 "" H 4300 6650 50  0000 C CNN
F 3 "" H 4300 6650 50  0000 C CNN
	1    4300 6650
	1    0    0    -1  
$EndComp
Wire Wire Line
	4300 6750 4300 6650
$Comp
L -9VA #PWR043
U 1 1 58B0D900
P 4300 7200
F 0 "#PWR043" H 4300 7075 50  0001 C CNN
F 1 "-9VA" H 4300 7350 50  0000 C CNN
F 2 "" H 4300 7200 50  0000 C CNN
F 3 "" H 4300 7200 50  0000 C CNN
	1    4300 7200
	-1   0    0    1   
$EndComp
Wire Wire Line
	4300 7150 4300 7200
Wire Wire Line
	4200 8200 4300 8200
Connection ~ 4300 8200
Wire Wire Line
	3800 8200 3700 8200
Connection ~ 3700 8200
$Comp
L GNDD #PWR044
U 1 1 58B0E77F
P 9450 4450
F 0 "#PWR044" H 9450 4200 50  0001 C CNN
F 1 "GNDD" H 9450 4300 50  0000 C CNN
F 2 "" H 9450 4450 50  0000 C CNN
F 3 "" H 9450 4450 50  0000 C CNN
	1    9450 4450
	1    0    0    -1  
$EndComp
$Comp
L C C308
U 1 1 58B0E78A
P 9150 4100
F 0 "C308" V 9100 3850 40  0000 L CNN
F 1 "220p" V 9100 4200 40  0000 L CNN
F 2 "MyKiCadLibs-Footprints:SMD-0805" H 9188 3950 30  0001 C CNN
F 3 "" H 9150 4200 60  0000 C CNN
F 4 "50V" V 9200 4200 40  0000 L CNN "Voltage"
F 5 "C0G" V 9200 3900 40  0000 L CNN "Type"
F 6 "Ceramic capacitor" H 9150 4400 40  0001 L CNN "Description"
F 7 "5%" H 9220 3735 40  0001 C CNN "Tolerance"
F 8 "0805" H 9160 3805 40  0001 L CNN "Size"
	1    9150 4100
	1    0    0    -1  
$EndComp
$Comp
L R R312
U 1 1 58B0E794
P 9450 4100
F 0 "R312" V 9370 4100 40  0000 C CNN
F 1 "10k" V 9457 4101 40  0000 C CNN
F 2 "MyKiCadLibs-Footprints:SMD-1206" V 9380 4100 30  0001 C CNN
F 3 "" V 9370 4100 30  0000 C CNN
F 4 "250mW" V 9550 4100 40  0001 C CNN "Power"
F 5 "MELF0204 1% =>250mW or 1206 1% =>250mW" V 9695 4100 40  0001 C CNN "Description"
F 6 "1206" V 9625 4100 40  0001 C CNN "Size"
F 7 "1%" V 9775 4100 40  0001 C CNN "Tolerance"
	1    9450 4100
	1    0    0    -1  
$EndComp
$Comp
L R R308
U 1 1 58B0E79E
P 8750 3650
F 0 "R308" V 8670 3650 40  0000 C CNN
F 1 "10k" V 8757 3651 40  0000 C CNN
F 2 "MyKiCadLibs-Footprints:SMD-1206" V 8680 3650 30  0001 C CNN
F 3 "" V 8670 3650 30  0000 C CNN
F 4 "250mW" V 8850 3650 40  0001 C CNN "Power"
F 5 "MELF0204 1% =>250mW or 1206 1% =>250mW" V 8995 3650 40  0001 C CNN "Description"
F 6 "1206" V 8925 3650 40  0001 C CNN "Size"
F 7 "1%" V 9075 3650 40  0001 C CNN "Tolerance"
	1    8750 3650
	0    1    1    0   
$EndComp
$Comp
L R R310
U 1 1 58B0E7A8
P 9950 3850
F 0 "R310" V 9870 3850 40  0000 C CNN
F 1 "10k" V 9957 3851 40  0000 C CNN
F 2 "MyKiCadLibs-Footprints:SMD-1206" V 9880 3850 30  0001 C CNN
F 3 "" V 9870 3850 30  0000 C CNN
F 4 "250mW" V 10050 3850 40  0001 C CNN "Power"
F 5 "MELF0204 1% =>250mW or 1206 1% =>250mW" V 10195 3850 40  0001 C CNN "Description"
F 6 "1206" V 10125 3850 40  0001 C CNN "Size"
F 7 "1%" V 10275 3850 40  0001 C CNN "Tolerance"
	1    9950 3850
	0    -1   1    0   
$EndComp
$Comp
L GNDD #PWR045
U 1 1 58B0E7B7
P 10250 5300
F 0 "#PWR045" H 10250 5050 50  0001 C CNN
F 1 "GNDD" H 10250 5150 50  0000 C CNN
F 2 "" H 10250 5300 50  0000 C CNN
F 3 "" H 10250 5300 50  0000 C CNN
	1    10250 5300
	-1   0    0    -1  
$EndComp
$Comp
L R R320
U 1 1 58B0E7C1
P 10250 4450
F 0 "R320" V 10170 4450 40  0000 C CNN
F 1 "10k" V 10257 4451 40  0000 C CNN
F 2 "MyKiCadLibs-Footprints:SMD-1206" V 10180 4450 30  0001 C CNN
F 3 "" V 10170 4450 30  0000 C CNN
F 4 "250mW" V 10350 4450 40  0001 C CNN "Power"
F 5 "MELF0204 1% =>250mW or 1206 1% =>250mW" V 10495 4450 40  0001 C CNN "Description"
F 6 "1206" V 10425 4450 40  0001 C CNN "Size"
F 7 "1%" V 10575 4450 40  0001 C CNN "Tolerance"
	1    10250 4450
	-1   0    0    -1  
$EndComp
$Comp
L +9VA #PWR046
U 1 1 58B0E7C7
P 11800 1950
F 0 "#PWR046" H 11800 1825 50  0001 C CNN
F 1 "+9VA" H 11800 2100 50  0000 C CNN
F 2 "" H 11800 1950 50  0000 C CNN
F 3 "" H 11800 1950 50  0000 C CNN
	1    11800 1950
	1    0    0    -1  
$EndComp
$Comp
L -9VA #PWR047
U 1 1 58B0E7CD
P 11800 5400
F 0 "#PWR047" H 11800 5275 50  0001 C CNN
F 1 "-9VA" H 11800 5550 50  0000 C CNN
F 2 "" H 11800 5400 50  0000 C CNN
F 3 "" H 11800 5400 50  0000 C CNN
	1    11800 5400
	-1   0    0    1   
$EndComp
$Comp
L R R305
U 1 1 58B0E7E3
P 11800 3200
F 0 "R305" V 11720 3200 40  0000 C CNN
F 1 "10" V 11807 3201 40  0000 C CNN
F 2 "MyKiCadLibs-Footprints:SMD-1206" V 11730 3200 30  0001 C CNN
F 3 "" V 11720 3200 30  0000 C CNN
F 4 "250mW" V 11900 3200 40  0001 C CNN "Power"
F 5 "MELF0204 1% =>250mW or 1206 1% =>250mW" V 12045 3200 40  0001 C CNN "Description"
F 6 "1206" V 11975 3200 40  0001 C CNN "Size"
F 7 "1%" V 12125 3200 40  0001 C CNN "Tolerance"
	1    11800 3200
	1    0    0    -1  
$EndComp
$Comp
L R R316
U 1 1 58B0E7ED
P 11800 4150
F 0 "R316" V 11720 4150 40  0000 C CNN
F 1 "10" V 11807 4151 40  0000 C CNN
F 2 "MyKiCadLibs-Footprints:SMD-1206" V 11730 4150 30  0001 C CNN
F 3 "" V 11720 4150 30  0000 C CNN
F 4 "250mW" V 11900 4150 40  0001 C CNN "Power"
F 5 "MELF0204 1% =>250mW or 1206 1% =>250mW" V 12045 4150 40  0001 C CNN "Description"
F 6 "1206" V 11975 4150 40  0001 C CNN "Size"
F 7 "1%" V 12125 4150 40  0001 C CNN "Tolerance"
	1    11800 4150
	1    0    0    1   
$EndComp
$Comp
L C C306
U 1 1 58B0E7F8
P 9950 4050
F 0 "C306" V 9900 3800 40  0000 L CNN
F 1 "220p" V 9900 4150 40  0000 L CNN
F 2 "MyKiCadLibs-Footprints:SMD-0805" H 9988 3900 30  0001 C CNN
F 3 "" H 9950 4150 60  0000 C CNN
F 4 "50V" V 10000 4150 40  0000 L CNN "Voltage"
F 5 "C0G" V 10000 3850 40  0000 L CNN "Type"
F 6 "Ceramic capacitor" H 9950 4350 40  0001 L CNN "Description"
F 7 "5%" H 10020 3685 40  0001 C CNN "Tolerance"
F 8 "0805" H 9960 3755 40  0001 L CNN "Size"
	1    9950 4050
	0    1    1    0   
$EndComp
Wire Wire Line
	9450 4350 9450 4450
Wire Wire Line
	9150 4300 9150 4400
Wire Wire Line
	9150 4400 9450 4400
Connection ~ 9450 4400
Wire Wire Line
	9450 3650 9450 3850
Wire Wire Line
	9000 3650 10300 3650
Wire Wire Line
	9150 3900 9150 3650
Connection ~ 9450 3650
Connection ~ 9150 3650
Wire Wire Line
	8400 3650 8500 3650
Wire Wire Line
	10200 3850 10300 3850
Wire Wire Line
	10250 4700 10250 4800
Wire Wire Line
	10250 5300 10250 5200
Wire Wire Line
	10250 4200 10250 3850
Connection ~ 10250 3850
Wire Wire Line
	11800 1950 11800 2450
Connection ~ 11800 2050
Wire Wire Line
	11800 4900 11800 5400
Connection ~ 11800 5300
Wire Wire Line
	11800 3450 11800 3900
Wire Wire Line
	11800 4400 11800 4500
Wire Wire Line
	9700 3850 9650 3850
$Comp
L R R318
U 1 1 58B0E818
P 12650 4150
F 0 "R318" V 12570 4150 40  0000 C CNN
F 1 "10" V 12657 4151 40  0000 C CNN
F 2 "MyKiCadLibs-Footprints:SMD-1206" V 12580 4150 30  0001 C CNN
F 3 "" V 12570 4150 30  0000 C CNN
F 4 "250mW" V 12750 4150 40  0001 C CNN "Power"
F 5 "MELF0204 1% =>250mW or 1206 1% =>250mW" V 12895 4150 40  0001 C CNN "Description"
F 6 "1206" V 12825 4150 40  0001 C CNN "Size"
F 7 "1%" V 12975 4150 40  0001 C CNN "Tolerance"
	1    12650 4150
	1    0    0    1   
$EndComp
Wire Wire Line
	12650 3650 12650 3900
Wire Wire Line
	11800 3650 13150 3650
Connection ~ 11800 3650
$Comp
L C C310
U 1 1 58B0E826
P 12650 4700
F 0 "C310" V 12600 4450 40  0000 L CNN
F 1 "100n" V 12600 4800 40  0000 L CNN
F 2 "MyKiCadLibs-Footprints:CAP_TH_5mm_W3.5mm" H 12688 4550 30  0001 C CNN
F 3 "" H 12650 4800 60  0000 C CNN
F 4 "63V" V 12700 4800 40  0000 L CNN "Voltage"
F 5 "MKT" V 12700 4500 40  0000 L CNN "Type"
F 6 "Polyester film capacitor" H 12650 5000 40  0001 L CNN "Description"
F 7 "5%" H 12720 4335 40  0001 C CNN "Tolerance"
F 8 "5mm" H 12660 4405 40  0001 L CNN "Size"
	1    12650 4700
	-1   0    0    1   
$EndComp
$Comp
L GNDD #PWR048
U 1 1 58B0E82C
P 12650 5000
F 0 "#PWR048" H 12650 4750 50  0001 C CNN
F 1 "GNDD" H 12650 4850 50  0000 C CNN
F 2 "" H 12650 5000 50  0000 C CNN
F 3 "" H 12650 5000 50  0000 C CNN
	1    12650 5000
	1    0    0    -1  
$EndComp
Wire Wire Line
	12650 5000 12650 4900
Wire Wire Line
	12650 4500 12650 4400
$Comp
L R R306
U 1 1 58B0E838
P 12150 3200
F 0 "R306" V 12070 3200 40  0000 C CNN
F 1 "10" V 12157 3201 40  0000 C CNN
F 2 "MyKiCadLibs-Footprints:SMD-1206" V 12080 3200 30  0001 C CNN
F 3 "" V 12070 3200 30  0000 C CNN
F 4 "250mW" V 12250 3200 40  0001 C CNN "Power"
F 5 "MELF0204 1% =>250mW or 1206 1% =>250mW" V 12395 3200 40  0001 C CNN "Description"
F 6 "1206" V 12325 3200 40  0001 C CNN "Size"
F 7 "1%" V 12475 3200 40  0001 C CNN "Tolerance"
	1    12150 3200
	1    0    0    -1  
$EndComp
$Comp
L R R317
U 1 1 58B0E842
P 12050 4150
F 0 "R317" V 11970 4150 40  0000 C CNN
F 1 "10" V 12057 4151 40  0000 C CNN
F 2 "MyKiCadLibs-Footprints:SMD-1206" V 11980 4150 30  0001 C CNN
F 3 "" V 11970 4150 30  0000 C CNN
F 4 "250mW" V 12150 4150 40  0001 C CNN "Power"
F 5 "MELF0204 1% =>250mW or 1206 1% =>250mW" V 12295 4150 40  0001 C CNN "Description"
F 6 "1206" V 12225 4150 40  0001 C CNN "Size"
F 7 "1%" V 12375 4150 40  0001 C CNN "Tolerance"
	1    12050 4150
	1    0    0    1   
$EndComp
Wire Wire Line
	12050 3900 12050 3650
Connection ~ 12050 3650
Wire Wire Line
	12150 3450 12150 3650
Connection ~ 12150 3650
Wire Wire Line
	12150 2950 12150 2900
Wire Wire Line
	12150 2900 11800 2900
Connection ~ 11800 2900
Wire Wire Line
	12050 4400 12050 4450
Wire Wire Line
	12050 4450 11800 4450
Connection ~ 11800 4450
Wire Wire Line
	11800 2850 11800 2950
$Comp
L IC-OPAMP-SINGLE-SOIC8 U302
U 1 1 58B0E853
P 10800 3750
F 0 "U302" H 10850 4000 60  0000 L CNN
F 1 "TLE2081" H 10850 3900 60  0000 L CNN
F 2 "MyKiCadLibs-Footprints:IC_SOIC_8" H 10750 3900 60  0001 C CNN
F 3 "" H 10850 4000 60  0001 C CNN
	1    10800 3750
	1    0    0    -1  
$EndComp
$Comp
L DIODE D302
U 1 1 58B0E85A
P 11450 3300
F 0 "D302" H 11450 3400 40  0000 C CNN
F 1 "1N4148W" H 11450 3200 40  0000 C CNN
F 2 "MyKiCadLibs-Footprints:DIODE-SOD-123" H 11450 3300 60  0001 C CNN
F 3 "" H 11450 3300 60  0000 C CNN
F 4 "Text description" H 11450 3150 40  0001 C CNN "Description"
	1    11450 3300
	0    1    1    0   
$EndComp
$Comp
L DIODE D304
U 1 1 58B0E861
P 11450 4100
F 0 "D304" H 11450 4200 40  0000 C CNN
F 1 "1N4148W" H 11450 4000 40  0000 C CNN
F 2 "MyKiCadLibs-Footprints:DIODE-SOD-123" H 11450 4100 60  0001 C CNN
F 3 "" H 11450 4100 60  0000 C CNN
F 4 "Text description" H 11450 3950 40  0001 C CNN "Description"
	1    11450 4100
	0    1    1    0   
$EndComp
Wire Wire Line
	10800 3400 10800 2050
Wire Wire Line
	10800 2050 11800 2050
Wire Wire Line
	10800 4100 10800 5300
Wire Wire Line
	10800 5300 11800 5300
Wire Wire Line
	11300 3750 11450 3750
Wire Wire Line
	11450 3500 11450 3900
Connection ~ 11450 3750
Wire Wire Line
	11450 4300 11450 4750
Wire Wire Line
	11450 4700 11600 4700
Wire Wire Line
	11450 2600 11450 3100
Wire Wire Line
	11450 2650 11600 2650
$Comp
L R R302
U 1 1 58B0E876
P 11450 2350
F 0 "R302" V 11370 2350 40  0000 C CNN
F 1 "4k7" V 11457 2351 40  0000 C CNN
F 2 "MyKiCadLibs-Footprints:SMD-1206" V 11380 2350 30  0001 C CNN
F 3 "" V 11370 2350 30  0000 C CNN
F 4 "250mW" V 11550 2350 40  0001 C CNN "Power"
F 5 "MELF0204 1% =>250mW or 1206 1% =>250mW" V 11695 2350 40  0001 C CNN "Description"
F 6 "1206" V 11625 2350 40  0001 C CNN "Size"
F 7 "1%" V 11775 2350 40  0001 C CNN "Tolerance"
	1    11450 2350
	1    0    0    -1  
$EndComp
Wire Wire Line
	11450 2100 11450 2050
Connection ~ 11450 2050
Connection ~ 11450 2650
$Comp
L R R322
U 1 1 58B0E883
P 11450 5000
F 0 "R322" V 11370 5000 40  0000 C CNN
F 1 "4k7" V 11457 5001 40  0000 C CNN
F 2 "MyKiCadLibs-Footprints:SMD-1206" V 11380 5000 30  0001 C CNN
F 3 "" V 11370 5000 30  0000 C CNN
F 4 "250mW" V 11550 5000 40  0001 C CNN "Power"
F 5 "MELF0204 1% =>250mW or 1206 1% =>250mW" V 11695 5000 40  0001 C CNN "Description"
F 6 "1206" V 11625 5000 40  0001 C CNN "Size"
F 7 "1%" V 11775 5000 40  0001 C CNN "Tolerance"
	1    11450 5000
	1    0    0    -1  
$EndComp
Connection ~ 11450 4700
Wire Wire Line
	11450 5250 11450 5300
Connection ~ 11450 5300
Wire Wire Line
	9650 3850 9650 5650
Wire Wire Line
	9650 5650 12400 5650
Wire Wire Line
	12400 5650 12400 3650
Connection ~ 12400 3650
$Comp
L C C304
U 1 1 58B0E89E
P 10250 2800
F 0 "C304" H 10200 2650 40  0000 R CNN
F 1 "100n" H 10200 2725 40  0000 R CNN
F 2 "MyKiCadLibs-Footprints:SMD-0805" H 10288 2650 30  0001 C CNN
F 3 "" H 10250 2900 60  0000 C CNN
F 4 "50V" H 10200 2950 40  0000 R CNN "Voltage"
F 5 "X7R" H 10200 2875 40  0000 R CNN "Type"
F 6 "Ceramic capacitor" H 10250 3100 40  0001 L CNN "Description"
F 7 "10%" H 10320 2435 40  0001 C CNN "Tolerance"
F 8 "0805" H 10260 2505 40  0001 L CNN "Size"
	1    10250 2800
	-1   0    0    1   
$EndComp
$Comp
L +9VA #PWR049
U 1 1 58B0E8A4
P 9850 2450
F 0 "#PWR049" H 9850 2325 50  0001 C CNN
F 1 "+9VA" H 9850 2600 50  0000 C CNN
F 2 "" H 9850 2450 50  0000 C CNN
F 3 "" H 9850 2450 50  0000 C CNN
	1    9850 2450
	1    0    0    -1  
$EndComp
Wire Wire Line
	9850 2450 9850 2600
Wire Wire Line
	10250 2600 10250 2500
Wire Wire Line
	10250 2500 9850 2500
Connection ~ 9850 2500
$Comp
L -9VA #PWR050
U 1 1 58B0E8AE
P 9850 3100
F 0 "#PWR050" H 9850 2975 50  0001 C CNN
F 1 "-9VA" H 9850 3250 50  0000 C CNN
F 2 "" H 9850 3100 50  0000 C CNN
F 3 "" H 9850 3100 50  0000 C CNN
	1    9850 3100
	-1   0    0    1   
$EndComp
Wire Wire Line
	10250 3000 10250 3050
Wire Wire Line
	10250 3050 9850 3050
Wire Wire Line
	9850 3000 9850 3100
Connection ~ 9850 3050
Wire Wire Line
	10150 4050 10250 4050
Connection ~ 10250 4050
Wire Wire Line
	9750 4050 9650 4050
Connection ~ 9650 4050
$Comp
L GNDD #PWR051
U 1 1 58B0E8BD
P 9450 8600
F 0 "#PWR051" H 9450 8350 50  0001 C CNN
F 1 "GNDD" H 9450 8450 50  0000 C CNN
F 2 "" H 9450 8600 50  0000 C CNN
F 3 "" H 9450 8600 50  0000 C CNN
	1    9450 8600
	1    0    0    -1  
$EndComp
$Comp
L C C320
U 1 1 58B0E8C8
P 9150 8250
F 0 "C320" V 9100 8000 40  0000 L CNN
F 1 "220p" V 9100 8350 40  0000 L CNN
F 2 "MyKiCadLibs-Footprints:SMD-0805" H 9188 8100 30  0001 C CNN
F 3 "" H 9150 8350 60  0000 C CNN
F 4 "50V" V 9200 8350 40  0000 L CNN "Voltage"
F 5 "C0G" V 9200 8050 40  0000 L CNN "Type"
F 6 "Ceramic capacitor" H 9150 8550 40  0001 L CNN "Description"
F 7 "5%" H 9220 7885 40  0001 C CNN "Tolerance"
F 8 "0805" H 9160 7955 40  0001 L CNN "Size"
	1    9150 8250
	1    0    0    -1  
$EndComp
$Comp
L R R334
U 1 1 58B0E8D2
P 9450 8250
F 0 "R334" V 9370 8250 40  0000 C CNN
F 1 "10k" V 9457 8251 40  0000 C CNN
F 2 "MyKiCadLibs-Footprints:SMD-1206" V 9380 8250 30  0001 C CNN
F 3 "" V 9370 8250 30  0000 C CNN
F 4 "250mW" V 9550 8250 40  0001 C CNN "Power"
F 5 "MELF0204 1% =>250mW or 1206 1% =>250mW" V 9695 8250 40  0001 C CNN "Description"
F 6 "1206" V 9625 8250 40  0001 C CNN "Size"
F 7 "1%" V 9775 8250 40  0001 C CNN "Tolerance"
	1    9450 8250
	1    0    0    -1  
$EndComp
$Comp
L R R330
U 1 1 58B0E8DC
P 8750 7800
F 0 "R330" V 8670 7800 40  0000 C CNN
F 1 "10k" V 8757 7801 40  0000 C CNN
F 2 "MyKiCadLibs-Footprints:SMD-1206" V 8680 7800 30  0001 C CNN
F 3 "" V 8670 7800 30  0000 C CNN
F 4 "250mW" V 8850 7800 40  0001 C CNN "Power"
F 5 "MELF0204 1% =>250mW or 1206 1% =>250mW" V 8995 7800 40  0001 C CNN "Description"
F 6 "1206" V 8925 7800 40  0001 C CNN "Size"
F 7 "1%" V 9075 7800 40  0001 C CNN "Tolerance"
	1    8750 7800
	0    1    1    0   
$EndComp
$Comp
L R R332
U 1 1 58B0E8E6
P 9950 8000
F 0 "R332" V 9870 8000 40  0000 C CNN
F 1 "10k" V 9957 8001 40  0000 C CNN
F 2 "MyKiCadLibs-Footprints:SMD-1206" V 9880 8000 30  0001 C CNN
F 3 "" V 9870 8000 30  0000 C CNN
F 4 "250mW" V 10050 8000 40  0001 C CNN "Power"
F 5 "MELF0204 1% =>250mW or 1206 1% =>250mW" V 10195 8000 40  0001 C CNN "Description"
F 6 "1206" V 10125 8000 40  0001 C CNN "Size"
F 7 "1%" V 10275 8000 40  0001 C CNN "Tolerance"
	1    9950 8000
	0    -1   1    0   
$EndComp
$Comp
L GNDD #PWR052
U 1 1 58B0E8F5
P 10250 9450
F 0 "#PWR052" H 10250 9200 50  0001 C CNN
F 1 "GNDD" H 10250 9300 50  0000 C CNN
F 2 "" H 10250 9450 50  0000 C CNN
F 3 "" H 10250 9450 50  0000 C CNN
	1    10250 9450
	-1   0    0    -1  
$EndComp
$Comp
L R R342
U 1 1 58B0E8FF
P 10250 8600
F 0 "R342" V 10170 8600 40  0000 C CNN
F 1 "10k" V 10257 8601 40  0000 C CNN
F 2 "MyKiCadLibs-Footprints:SMD-1206" V 10180 8600 30  0001 C CNN
F 3 "" V 10170 8600 30  0000 C CNN
F 4 "250mW" V 10350 8600 40  0001 C CNN "Power"
F 5 "MELF0204 1% =>250mW or 1206 1% =>250mW" V 10495 8600 40  0001 C CNN "Description"
F 6 "1206" V 10425 8600 40  0001 C CNN "Size"
F 7 "1%" V 10575 8600 40  0001 C CNN "Tolerance"
	1    10250 8600
	-1   0    0    -1  
$EndComp
$Comp
L +9VA #PWR053
U 1 1 58B0E905
P 11800 6100
F 0 "#PWR053" H 11800 5975 50  0001 C CNN
F 1 "+9VA" H 11800 6250 50  0000 C CNN
F 2 "" H 11800 6100 50  0000 C CNN
F 3 "" H 11800 6100 50  0000 C CNN
	1    11800 6100
	1    0    0    -1  
$EndComp
$Comp
L -9VA #PWR054
U 1 1 58B0E90B
P 11800 9550
F 0 "#PWR054" H 11800 9425 50  0001 C CNN
F 1 "-9VA" H 11800 9700 50  0000 C CNN
F 2 "" H 11800 9550 50  0000 C CNN
F 3 "" H 11800 9550 50  0000 C CNN
	1    11800 9550
	-1   0    0    1   
$EndComp
$Comp
L R R327
U 1 1 58B0E921
P 11800 7350
F 0 "R327" V 11720 7350 40  0000 C CNN
F 1 "10" V 11807 7351 40  0000 C CNN
F 2 "MyKiCadLibs-Footprints:SMD-1206" V 11730 7350 30  0001 C CNN
F 3 "" V 11720 7350 30  0000 C CNN
F 4 "250mW" V 11900 7350 40  0001 C CNN "Power"
F 5 "MELF0204 1% =>250mW or 1206 1% =>250mW" V 12045 7350 40  0001 C CNN "Description"
F 6 "1206" V 11975 7350 40  0001 C CNN "Size"
F 7 "1%" V 12125 7350 40  0001 C CNN "Tolerance"
	1    11800 7350
	1    0    0    -1  
$EndComp
$Comp
L R R338
U 1 1 58B0E92B
P 11800 8300
F 0 "R338" V 11720 8300 40  0000 C CNN
F 1 "10" V 11807 8301 40  0000 C CNN
F 2 "MyKiCadLibs-Footprints:SMD-1206" V 11730 8300 30  0001 C CNN
F 3 "" V 11720 8300 30  0000 C CNN
F 4 "250mW" V 11900 8300 40  0001 C CNN "Power"
F 5 "MELF0204 1% =>250mW or 1206 1% =>250mW" V 12045 8300 40  0001 C CNN "Description"
F 6 "1206" V 11975 8300 40  0001 C CNN "Size"
F 7 "1%" V 12125 8300 40  0001 C CNN "Tolerance"
	1    11800 8300
	1    0    0    1   
$EndComp
$Comp
L C C318
U 1 1 58B0E936
P 9950 8200
F 0 "C318" V 9900 7950 40  0000 L CNN
F 1 "220p" V 9900 8300 40  0000 L CNN
F 2 "MyKiCadLibs-Footprints:SMD-0805" H 9988 8050 30  0001 C CNN
F 3 "" H 9950 8300 60  0000 C CNN
F 4 "50V" V 10000 8300 40  0000 L CNN "Voltage"
F 5 "C0G" V 10000 8000 40  0000 L CNN "Type"
F 6 "Ceramic capacitor" H 9950 8500 40  0001 L CNN "Description"
F 7 "5%" H 10020 7835 40  0001 C CNN "Tolerance"
F 8 "0805" H 9960 7905 40  0001 L CNN "Size"
	1    9950 8200
	0    1    1    0   
$EndComp
Wire Wire Line
	9450 8500 9450 8600
Wire Wire Line
	9150 8450 9150 8550
Wire Wire Line
	9150 8550 9450 8550
Connection ~ 9450 8550
Wire Wire Line
	9450 7800 9450 8000
Wire Wire Line
	9000 7800 10300 7800
Wire Wire Line
	9150 8050 9150 7800
Connection ~ 9450 7800
Connection ~ 9150 7800
Wire Wire Line
	8400 7800 8500 7800
Wire Wire Line
	10200 8000 10300 8000
Wire Wire Line
	10250 8850 10250 8950
Wire Wire Line
	10250 9450 10250 9350
Wire Wire Line
	10250 8350 10250 8000
Connection ~ 10250 8000
Wire Wire Line
	11800 6100 11800 6600
Connection ~ 11800 6200
Wire Wire Line
	11800 9050 11800 9550
Connection ~ 11800 9450
Wire Wire Line
	11800 7600 11800 8050
Wire Wire Line
	11800 8550 11800 8650
Wire Wire Line
	9700 8000 9650 8000
$Comp
L R R340
U 1 1 58B0E956
P 12650 8300
F 0 "R340" V 12570 8300 40  0000 C CNN
F 1 "10" V 12657 8301 40  0000 C CNN
F 2 "MyKiCadLibs-Footprints:SMD-1206" V 12580 8300 30  0001 C CNN
F 3 "" V 12570 8300 30  0000 C CNN
F 4 "250mW" V 12750 8300 40  0001 C CNN "Power"
F 5 "MELF0204 1% =>250mW or 1206 1% =>250mW" V 12895 8300 40  0001 C CNN "Description"
F 6 "1206" V 12825 8300 40  0001 C CNN "Size"
F 7 "1%" V 12975 8300 40  0001 C CNN "Tolerance"
	1    12650 8300
	1    0    0    1   
$EndComp
Wire Wire Line
	12650 6100 12650 8050
Wire Wire Line
	11800 7800 12650 7800
Connection ~ 11800 7800
$Comp
L C C322
U 1 1 58B0E964
P 12650 8850
F 0 "C322" V 12600 8600 40  0000 L CNN
F 1 "100n" V 12600 8950 40  0000 L CNN
F 2 "MyKiCadLibs-Footprints:CAP_TH_5mm_W3.5mm" H 12688 8700 30  0001 C CNN
F 3 "" H 12650 8950 60  0000 C CNN
F 4 "63V" V 12700 8950 40  0000 L CNN "Voltage"
F 5 "MKT" V 12700 8650 40  0000 L CNN "Type"
F 6 "Polyester film capacitor" H 12650 9150 40  0001 L CNN "Description"
F 7 "5%" H 12720 8485 40  0001 C CNN "Tolerance"
F 8 "5mm" H 12660 8555 40  0001 L CNN "Size"
	1    12650 8850
	-1   0    0    1   
$EndComp
$Comp
L GNDD #PWR055
U 1 1 58B0E96A
P 12650 9150
F 0 "#PWR055" H 12650 8900 50  0001 C CNN
F 1 "GNDD" H 12650 9000 50  0000 C CNN
F 2 "" H 12650 9150 50  0000 C CNN
F 3 "" H 12650 9150 50  0000 C CNN
	1    12650 9150
	1    0    0    -1  
$EndComp
Wire Wire Line
	12650 9150 12650 9050
Wire Wire Line
	12650 8650 12650 8550
$Comp
L R R328
U 1 1 58B0E976
P 12150 7350
F 0 "R328" V 12070 7350 40  0000 C CNN
F 1 "10" V 12157 7351 40  0000 C CNN
F 2 "MyKiCadLibs-Footprints:SMD-1206" V 12080 7350 30  0001 C CNN
F 3 "" V 12070 7350 30  0000 C CNN
F 4 "250mW" V 12250 7350 40  0001 C CNN "Power"
F 5 "MELF0204 1% =>250mW or 1206 1% =>250mW" V 12395 7350 40  0001 C CNN "Description"
F 6 "1206" V 12325 7350 40  0001 C CNN "Size"
F 7 "1%" V 12475 7350 40  0001 C CNN "Tolerance"
	1    12150 7350
	1    0    0    -1  
$EndComp
$Comp
L R R339
U 1 1 58B0E980
P 12050 8300
F 0 "R339" V 11970 8300 40  0000 C CNN
F 1 "10" V 12057 8301 40  0000 C CNN
F 2 "MyKiCadLibs-Footprints:SMD-1206" V 11980 8300 30  0001 C CNN
F 3 "" V 11970 8300 30  0000 C CNN
F 4 "250mW" V 12150 8300 40  0001 C CNN "Power"
F 5 "MELF0204 1% =>250mW or 1206 1% =>250mW" V 12295 8300 40  0001 C CNN "Description"
F 6 "1206" V 12225 8300 40  0001 C CNN "Size"
F 7 "1%" V 12375 8300 40  0001 C CNN "Tolerance"
	1    12050 8300
	1    0    0    1   
$EndComp
Wire Wire Line
	12050 8050 12050 7800
Connection ~ 12050 7800
Wire Wire Line
	12150 7600 12150 7800
Connection ~ 12150 7800
Wire Wire Line
	12150 7100 12150 7050
Wire Wire Line
	12150 7050 11800 7050
Connection ~ 11800 7050
Wire Wire Line
	12050 8550 12050 8600
Wire Wire Line
	12050 8600 11800 8600
Connection ~ 11800 8600
Wire Wire Line
	11800 7000 11800 7100
$Comp
L IC-OPAMP-SINGLE-SOIC8 U304
U 1 1 58B0E991
P 10800 7900
F 0 "U304" H 10850 8150 60  0000 L CNN
F 1 "TLE2081" H 10850 8050 60  0000 L CNN
F 2 "MyKiCadLibs-Footprints:IC_SOIC_8" H 10750 8050 60  0001 C CNN
F 3 "" H 10850 8150 60  0001 C CNN
	1    10800 7900
	1    0    0    -1  
$EndComp
$Comp
L DIODE D306
U 1 1 58B0E998
P 11450 7450
F 0 "D306" H 11450 7550 40  0000 C CNN
F 1 "1N4148W" H 11450 7350 40  0000 C CNN
F 2 "MyKiCadLibs-Footprints:DIODE-SOD-123" H 11450 7450 60  0001 C CNN
F 3 "" H 11450 7450 60  0000 C CNN
F 4 "Text description" H 11450 7300 40  0001 C CNN "Description"
	1    11450 7450
	0    1    1    0   
$EndComp
$Comp
L DIODE D308
U 1 1 58B0E99F
P 11450 8250
F 0 "D308" H 11450 8350 40  0000 C CNN
F 1 "1N4148W" H 11450 8150 40  0000 C CNN
F 2 "MyKiCadLibs-Footprints:DIODE-SOD-123" H 11450 8250 60  0001 C CNN
F 3 "" H 11450 8250 60  0000 C CNN
F 4 "Text description" H 11450 8100 40  0001 C CNN "Description"
	1    11450 8250
	0    1    1    0   
$EndComp
Wire Wire Line
	10800 7550 10800 6200
Wire Wire Line
	10800 6200 11800 6200
Wire Wire Line
	10800 8250 10800 9450
Wire Wire Line
	10800 9450 11800 9450
Wire Wire Line
	11300 7900 11450 7900
Wire Wire Line
	11450 7650 11450 8050
Connection ~ 11450 7900
Wire Wire Line
	11450 8450 11450 8900
Wire Wire Line
	11450 8850 11600 8850
Wire Wire Line
	11450 6750 11450 7250
Wire Wire Line
	11450 6800 11600 6800
$Comp
L R R324
U 1 1 58B0E9B4
P 11450 6500
F 0 "R324" V 11370 6500 40  0000 C CNN
F 1 "4k7" V 11457 6501 40  0000 C CNN
F 2 "MyKiCadLibs-Footprints:SMD-1206" V 11380 6500 30  0001 C CNN
F 3 "" V 11370 6500 30  0000 C CNN
F 4 "250mW" V 11550 6500 40  0001 C CNN "Power"
F 5 "MELF0204 1% =>250mW or 1206 1% =>250mW" V 11695 6500 40  0001 C CNN "Description"
F 6 "1206" V 11625 6500 40  0001 C CNN "Size"
F 7 "1%" V 11775 6500 40  0001 C CNN "Tolerance"
	1    11450 6500
	1    0    0    -1  
$EndComp
Wire Wire Line
	11450 6250 11450 6200
Connection ~ 11450 6200
Connection ~ 11450 6800
$Comp
L R R344
U 1 1 58B0E9C1
P 11450 9150
F 0 "R344" V 11370 9150 40  0000 C CNN
F 1 "4k7" V 11457 9151 40  0000 C CNN
F 2 "MyKiCadLibs-Footprints:SMD-1206" V 11380 9150 30  0001 C CNN
F 3 "" V 11370 9150 30  0000 C CNN
F 4 "250mW" V 11550 9150 40  0001 C CNN "Power"
F 5 "MELF0204 1% =>250mW or 1206 1% =>250mW" V 11695 9150 40  0001 C CNN "Description"
F 6 "1206" V 11625 9150 40  0001 C CNN "Size"
F 7 "1%" V 11775 9150 40  0001 C CNN "Tolerance"
	1    11450 9150
	1    0    0    -1  
$EndComp
Connection ~ 11450 8850
Wire Wire Line
	11450 9400 11450 9450
Connection ~ 11450 9450
Wire Wire Line
	9650 8000 9650 9800
Wire Wire Line
	9650 9800 12400 9800
Wire Wire Line
	12400 9800 12400 7800
Connection ~ 12400 7800
$Comp
L C C316
U 1 1 58B0E9DC
P 10250 6950
F 0 "C316" H 10200 6800 40  0000 R CNN
F 1 "100n" H 10200 6875 40  0000 R CNN
F 2 "MyKiCadLibs-Footprints:SMD-0805" H 10288 6800 30  0001 C CNN
F 3 "" H 10250 7050 60  0000 C CNN
F 4 "50V" H 10200 7100 40  0000 R CNN "Voltage"
F 5 "X7R" H 10200 7025 40  0000 R CNN "Type"
F 6 "Ceramic capacitor" H 10250 7250 40  0001 L CNN "Description"
F 7 "10%" H 10320 6585 40  0001 C CNN "Tolerance"
F 8 "0805" H 10260 6655 40  0001 L CNN "Size"
	1    10250 6950
	-1   0    0    1   
$EndComp
Wire Wire Line
	10250 6750 10250 6650
$Comp
L -9VA #PWR056
U 1 1 58B0E9EC
P 10250 7200
F 0 "#PWR056" H 10250 7075 50  0001 C CNN
F 1 "-9VA" H 10250 7350 50  0000 C CNN
F 2 "" H 10250 7200 50  0000 C CNN
F 3 "" H 10250 7200 50  0000 C CNN
	1    10250 7200
	-1   0    0    1   
$EndComp
Wire Wire Line
	10250 7150 10250 7200
Wire Wire Line
	10150 8200 10250 8200
Connection ~ 10250 8200
Wire Wire Line
	9750 8200 9650 8200
Connection ~ 9650 8200
$Comp
L CP1 C303
U 1 1 58B0FE6D
P 9850 2800
F 0 "C303" H 9725 2900 40  0000 R CNN
F 1 "220u" H 9725 2825 40  0000 R CNN
F 2 "MyKiCadLibs-Footprints:CAP-TH-D8mmP3.5mm" H 9800 2800 60  0001 C CNN
F 3 "" H 9850 2800 60  0000 C CNN
F 4 "35V" H 9725 2750 40  0000 R CNN "Voltage"
F 5 "Pitch 3.5mm, Diameter 8mm" H 9850 3100 40  0001 L CNN "Size"
F 6 "Aluminium electrolytic capacitor" H 9850 3200 40  0001 L CNN "Description"
	1    9850 2800
	-1   0    0    -1  
$EndComp
$Comp
L CP1 C312
U 1 1 58B117C4
P 10250 5000
F 0 "C312" H 10125 5100 40  0000 R CNN
F 1 "220u" H 10125 5025 40  0000 R CNN
F 2 "MyKiCadLibs-Footprints:CAP-TH-D8mmP3.5mm" H 10200 5000 60  0001 C CNN
F 3 "" H 10250 5000 60  0000 C CNN
F 4 "35V" H 10125 4950 40  0000 R CNN "Voltage"
F 5 "Pitch 3.5mm, Diameter 8mm" H 10250 5300 40  0001 L CNN "Size"
F 6 "High quality capacitor, eg Panasonic FC" H 10250 5400 40  0001 L CNN "Description"
	1    10250 5000
	1    0    0    -1  
$EndComp
$Comp
L CP1 C323
U 1 1 58B11CA8
P 4300 9150
F 0 "C323" H 4175 9250 40  0000 R CNN
F 1 "220u" H 4175 9175 40  0000 R CNN
F 2 "MyKiCadLibs-Footprints:CAP-TH-D8mmP3.5mm" H 4250 9150 60  0001 C CNN
F 3 "" H 4300 9150 60  0000 C CNN
F 4 "35V" H 4175 9100 40  0000 R CNN "Voltage"
F 5 "Pitch 3.5mm, Diameter 8mm" H 4300 9450 40  0001 L CNN "Size"
F 6 "High quality capacitor, eg Panasonic FC" H 4300 9550 40  0001 L CNN "Description"
	1    4300 9150
	1    0    0    -1  
$EndComp
$Comp
L CP1 C324
U 1 1 58B12313
P 10250 9150
F 0 "C324" H 10125 9250 40  0000 R CNN
F 1 "220u" H 10125 9175 40  0000 R CNN
F 2 "MyKiCadLibs-Footprints:CAP-TH-D8mmP3.5mm" H 10200 9150 60  0001 C CNN
F 3 "" H 10250 9150 60  0000 C CNN
F 4 "35V" H 10125 9100 40  0000 R CNN "Voltage"
F 5 "Pitch 3.5mm, Diameter 8mm" H 10250 9450 40  0001 L CNN "Size"
F 6 "High quality capacitor, eg Panasonic FC" H 10250 9550 40  0001 L CNN "Description"
	1    10250 9150
	1    0    0    -1  
$EndComp
$Comp
L TRAN-NPN-PZTA42 TR302
U 1 1 58B19EBE
P 11600 2650
F 0 "TR302" H 11950 2700 60  0000 C CNN
F 1 "BCP56−16" H 12100 2600 60  0000 C CNN
F 2 "MyKiCadLibs-Footprints:IC-SOT-223" H 11600 2650 60  0001 C CNN
F 3 "" H 11600 2650 60  0000 C CNN
	1    11600 2650
	1    0    0    -1  
$EndComp
$Comp
L TRAN-NPN-PZTA42 TR305
U 1 1 58B1A029
P 5650 6800
F 0 "TR305" H 6000 6850 60  0000 C CNN
F 1 "BCP56−16" H 6150 6750 60  0000 C CNN
F 2 "MyKiCadLibs-Footprints:IC-SOT-223" H 5650 6800 60  0001 C CNN
F 3 "" H 5650 6800 60  0000 C CNN
	1    5650 6800
	1    0    0    -1  
$EndComp
$Comp
L TRAN-NPN-PZTA42 TR306
U 1 1 58B1A29B
P 11600 6800
F 0 "TR306" H 11950 6850 60  0000 C CNN
F 1 "BCP56−16" H 12100 6750 60  0000 C CNN
F 2 "MyKiCadLibs-Footprints:IC-SOT-223" H 11600 6800 60  0001 C CNN
F 3 "" H 11600 6800 60  0000 C CNN
	1    11600 6800
	1    0    0    -1  
$EndComp
$Comp
L TRAN-PNP-PZTA92 TR304
U 1 1 58B1A416
P 11600 4700
F 0 "TR304" H 11950 4650 60  0000 C CNN
F 1 "BCP53−16" H 12100 4750 60  0000 C CNN
F 2 "MyKiCadLibs-Footprints:IC-SOT-223" H 11600 4700 60  0001 C CNN
F 3 "" H 11600 4700 60  0000 C CNN
	1    11600 4700
	1    0    0    1   
$EndComp
$Comp
L TRAN-PNP-PZTA92 TR308
U 1 1 58B1A55A
P 11600 8850
F 0 "TR308" H 11950 8800 60  0000 C CNN
F 1 "BCP53−16" H 12100 8900 60  0000 C CNN
F 2 "MyKiCadLibs-Footprints:IC-SOT-223" H 11600 8850 60  0001 C CNN
F 3 "" H 11600 8850 60  0000 C CNN
	1    11600 8850
	1    0    0    1   
$EndComp
$Comp
L TRAN-PNP-PZTA92 TR307
U 1 1 58B1A7F8
P 5650 8850
F 0 "TR307" H 6000 8800 60  0000 C CNN
F 1 "BCP53−16" H 6150 8900 60  0000 C CNN
F 2 "MyKiCadLibs-Footprints:IC-SOT-223" H 5650 8850 60  0001 C CNN
F 3 "" H 5650 8850 60  0000 C CNN
	1    5650 8850
	1    0    0    1   
$EndComp
$Comp
L CONN_6.35mm_SW_FCR11155_ACJS-MHDR U305
U 1 1 58B01804
P 7700 5900
F 0 "U305" H 7750 6150 60  0000 C CNN
F 1 "CONN_6.35mm_SW_FCR11155_ACJS-MHDR" H 8250 6025 60  0000 C CNN
F 2 "MyKiCadLibs-Footprints:CON-6.35mm-ACJS-MHDR-FCR11155" H 8325 5150 60  0001 C CNN
F 3 "" H 7700 6900 60  0001 C CNN
F 4 "6.35mm PCB Mount Jack - Examples Cliff FCR11155 or AMPHENOL ACJS-MHDR" H 8200 5275 60  0001 C CNN "Description"
	1    7700 5900
	1    0    0    -1  
$EndComp
$Comp
L GNDD #PWR057
U 1 1 58B01C3B
P 7500 6550
F 0 "#PWR057" H 7500 6300 50  0001 C CNN
F 1 "GNDD" H 7500 6400 50  0000 C CNN
F 2 "" H 7500 6550 50  0000 C CNN
F 3 "" H 7500 6550 50  0000 C CNN
	1    7500 6550
	-1   0    0    -1  
$EndComp
Wire Wire Line
	7500 6550 7500 5900
Wire Wire Line
	7500 5900 7700 5900
Wire Wire Line
	7700 6000 7500 6000
Connection ~ 7500 6000
Connection ~ 6700 7800
Wire Wire Line
	7700 6400 7200 6400
Wire Wire Line
	7200 6400 7200 3650
Connection ~ 6700 3650
Wire Wire Line
	6700 6100 7700 6100
$Comp
L CONN_6.35mm_SW_FCR11155_ACJS-MHDR U306
U 1 1 58B049D6
P 13650 5900
F 0 "U306" H 13700 6150 60  0000 C CNN
F 1 "CONN_6.35mm_SW_FCR11155_ACJS-MHDR" H 14200 6025 60  0000 C CNN
F 2 "MyKiCadLibs-Footprints:CON-6.35mm-ACJS-MHDR-FCR11155" H 14275 5150 60  0001 C CNN
F 3 "" H 13650 6900 60  0001 C CNN
F 4 "6.35mm PCB Mount Jack - Examples Cliff FCR11155 or AMPHENOL ACJS-MHDR" H 14150 5275 60  0001 C CNN "Description"
	1    13650 5900
	1    0    0    -1  
$EndComp
$Comp
L GNDD #PWR058
U 1 1 58B049DC
P 13450 6550
F 0 "#PWR058" H 13450 6300 50  0001 C CNN
F 1 "GNDD" H 13450 6400 50  0000 C CNN
F 2 "" H 13450 6550 50  0000 C CNN
F 3 "" H 13450 6550 50  0000 C CNN
	1    13450 6550
	-1   0    0    -1  
$EndComp
Wire Wire Line
	13450 6550 13450 5900
Wire Wire Line
	13450 5900 13650 5900
Wire Wire Line
	13650 6000 13450 6000
Connection ~ 13450 6000
Wire Wire Line
	13650 6400 13150 6400
Wire Wire Line
	13150 6400 13150 3650
Wire Wire Line
	12650 6100 13650 6100
Connection ~ 12650 7800
Connection ~ 12650 3650
$Comp
L +9VA #PWR059
U 1 1 58B59AE1
P 10250 6650
F 0 "#PWR059" H 10250 6525 50  0001 C CNN
F 1 "+9VA" H 10250 6800 50  0000 C CNN
F 2 "" H 10250 6650 50  0000 C CNN
F 3 "" H 10250 6650 50  0000 C CNN
	1    10250 6650
	1    0    0    -1  
$EndComp
$EndSCHEMATC
