EESchema Schematic File Version 2
LIBS:power
LIBS:MyKiCadLibs-Lib
LIBS:dev-AmpTwo-cache
EELAYER 25 0
EELAYER END
$Descr A4 11693 8268
encoding utf-8
Sheet 2 3
Title "AmpOne - Class D Amp Module"
Date "2017-02-14"
Rev "1.0"
Comp "Open Hardware DSP Platform - www.ohdsp.org"
Comment1 "MERCHANTABILITY, SATISFACTORY QUALITY AND FITNESS FOR A PARTICULAR PURPOSE."
Comment2 "is distributed WITHOUT ANY EXPRESS OR IMPLIED WARRANTY, INCLUDING OF"
Comment3 "Licensed under the TAPR Open Hardware License (www.tapr.org/OHL). This documentation"
Comment4 "Copyright Paul Janicki 2017"
$EndDescr
Text Notes 750  800  0    118  ~ 0
Differential Input Filters
$Comp
L GNDD #PWR04
U 1 1 589EA7E6
P 4700 2050
F 0 "#PWR04" H 4700 1800 50  0001 C CNN
F 1 "GNDD" H 4700 1900 50  0000 C CNN
F 2 "" H 4700 2050 50  0000 C CNN
F 3 "" H 4700 2050 50  0000 C CNN
	1    4700 2050
	1    0    0    -1  
$EndComp
$Comp
L C C207
U 1 1 589EA77D
P 6050 2000
F 0 "C207" V 6000 1750 40  0000 L CNN
F 1 "1n" V 6000 2100 40  0000 L CNN
F 2 "MyKiCadLibs-Footprints:SMD-0805" H 6088 1850 30  0001 C CNN
F 3 "" H 6050 2100 60  0000 C CNN
F 4 "50V" V 6100 2100 40  0000 L CNN "Voltage"
F 5 "C0G" V 6100 1800 40  0000 L CNN "Type"
F 6 "Ceramic capacitor" H 6050 2300 40  0001 L CNN "Description"
F 7 "5%" H 6120 1635 40  0001 C CNN "Tolerance"
F 8 "0805" H 6060 1705 40  0001 L CNN "Size"
	1    6050 2000
	0    1    1    0   
$EndComp
$Comp
L C C203
U 1 1 589EA68F
P 4400 1700
F 0 "C203" V 4350 1450 40  0000 L CNN
F 1 "1n" V 4350 1800 40  0000 L CNN
F 2 "MyKiCadLibs-Footprints:SMD-0805" H 4438 1550 30  0001 C CNN
F 3 "" H 4400 1800 60  0000 C CNN
F 4 "50V" V 4450 1800 40  0000 L CNN "Voltage"
F 5 "C0G" V 4450 1500 40  0000 L CNN "Type"
F 6 "Ceramic capacitor" H 4400 2000 40  0001 L CNN "Description"
F 7 "5%" H 4470 1335 40  0001 C CNN "Tolerance"
F 8 "0805" H 4410 1405 40  0001 L CNN "Size"
	1    4400 1700
	1    0    0    -1  
$EndComp
$Comp
L GNDD #PWR05
U 1 1 589E8A90
P 3250 5100
F 0 "#PWR05" H 3250 4850 50  0001 C CNN
F 1 "GNDD" H 3250 4950 50  0000 C CNN
F 2 "" H 3250 5100 50  0000 C CNN
F 3 "" H 3250 5100 50  0000 C CNN
	1    3250 5100
	1    0    0    -1  
$EndComp
$Comp
L GNDD #PWR06
U 1 1 589E8A3D
P 3250 4000
F 0 "#PWR06" H 3250 3750 50  0001 C CNN
F 1 "GNDD" H 3250 3850 50  0000 C CNN
F 2 "" H 3250 4000 50  0000 C CNN
F 3 "" H 3250 4000 50  0000 C CNN
	1    3250 4000
	1    0    0    -1  
$EndComp
$Comp
L GNDD #PWR07
U 1 1 589E89EA
P 3250 2900
F 0 "#PWR07" H 3250 2650 50  0001 C CNN
F 1 "GNDD" H 3250 2750 50  0000 C CNN
F 2 "" H 3250 2900 50  0000 C CNN
F 3 "" H 3250 2900 50  0000 C CNN
	1    3250 2900
	1    0    0    -1  
$EndComp
$Comp
L GNDD #PWR08
U 1 1 589E8997
P 3250 1800
F 0 "#PWR08" H 3250 1550 50  0001 C CNN
F 1 "GNDD" H 3250 1650 50  0000 C CNN
F 2 "" H 3250 1800 50  0000 C CNN
F 3 "" H 3250 1800 50  0000 C CNN
	1    3250 1800
	1    0    0    -1  
$EndComp
$Comp
L GNDD #PWR09
U 1 1 589E8944
P 2050 4050
F 0 "#PWR09" H 2050 3800 50  0001 C CNN
F 1 "GNDD" H 2050 3900 50  0000 C CNN
F 2 "" H 2050 4050 50  0000 C CNN
F 3 "" H 2050 4050 50  0000 C CNN
	1    2050 4050
	1    0    0    -1  
$EndComp
$Comp
L GNDD #PWR010
U 1 1 589E88EA
P 1350 4050
F 0 "#PWR010" H 1350 3800 50  0001 C CNN
F 1 "GNDD" H 1350 3900 50  0000 C CNN
F 2 "" H 1350 4050 50  0000 C CNN
F 3 "" H 1350 4050 50  0000 C CNN
	1    1350 4050
	1    0    0    -1  
$EndComp
$Comp
L R R236
U 1 1 589E6A99
P 3150 5400
F 0 "R236" V 3070 5400 40  0000 C CNN
F 1 "100k" V 3157 5401 40  0000 C CNN
F 2 "MyKiCadLibs-Footprints:SMD-1206" V 3080 5400 30  0001 C CNN
F 3 "" V 3070 5400 30  0000 C CNN
F 4 "250mW" V 3250 5400 40  0001 C CNN "Power"
F 5 "MELF0204 1% =>250mW or 1206 1% =>250mW" V 3395 5400 40  0001 C CNN "Description"
F 6 "1206" V 3325 5400 40  0001 C CNN "Size"
F 7 "1%" V 3475 5400 40  0001 C CNN "Tolerance"
	1    3150 5400
	0    -1   1    0   
$EndComp
$Comp
L R R233
U 1 1 589E6A8E
P 3150 4900
F 0 "R233" V 3070 4900 40  0000 C CNN
F 1 "100k" V 3157 4901 40  0000 C CNN
F 2 "MyKiCadLibs-Footprints:SMD-1206" V 3080 4900 30  0001 C CNN
F 3 "" V 3070 4900 30  0000 C CNN
F 4 "250mW" V 3250 4900 40  0001 C CNN "Power"
F 5 "MELF0204 1% =>250mW or 1206 1% =>250mW" V 3395 4900 40  0001 C CNN "Description"
F 6 "1206" V 3325 4900 40  0001 C CNN "Size"
F 7 "1%" V 3475 4900 40  0001 C CNN "Tolerance"
	1    3150 4900
	0    -1   -1   0   
$EndComp
$Comp
L R R237
U 1 1 589E6A83
P 3250 5550
F 0 "R237" V 3170 5550 40  0000 C CNN
F 1 "100" V 3257 5551 40  0000 C CNN
F 2 "MyKiCadLibs-Footprints:SMD-1206" V 3180 5550 30  0001 C CNN
F 3 "" V 3170 5550 30  0000 C CNN
F 4 "250mW" V 3350 5550 40  0001 C CNN "Power"
F 5 "MELF0204 1% =>250mW or 1206 1% =>250mW" V 3495 5550 40  0001 C CNN "Description"
F 6 "1206" V 3425 5550 40  0001 C CNN "Size"
F 7 "1%" V 3575 5550 40  0001 C CNN "Tolerance"
	1    3250 5550
	0    1    -1   0   
$EndComp
$Comp
L R R230
U 1 1 589E6A78
P 3250 4700
F 0 "R230" V 3170 4700 40  0000 C CNN
F 1 "100" V 3257 4701 40  0000 C CNN
F 2 "MyKiCadLibs-Footprints:SMD-1206" V 3180 4700 30  0001 C CNN
F 3 "" V 3170 4700 30  0000 C CNN
F 4 "250mW" V 3350 4700 40  0001 C CNN "Power"
F 5 "MELF0204 1% =>250mW or 1206 1% =>250mW" V 3495 4700 40  0001 C CNN "Description"
F 6 "1206" V 3425 4700 40  0001 C CNN "Size"
F 7 "1%" V 3575 4700 40  0001 C CNN "Tolerance"
	1    3250 4700
	0    1    -1   0   
$EndComp
$Comp
L R R226
U 1 1 589E6A4B
P 3150 4300
F 0 "R226" V 3070 4300 40  0000 C CNN
F 1 "100k" V 3157 4301 40  0000 C CNN
F 2 "MyKiCadLibs-Footprints:SMD-1206" V 3080 4300 30  0001 C CNN
F 3 "" V 3070 4300 30  0000 C CNN
F 4 "250mW" V 3250 4300 40  0001 C CNN "Power"
F 5 "MELF0204 1% =>250mW or 1206 1% =>250mW" V 3395 4300 40  0001 C CNN "Description"
F 6 "1206" V 3325 4300 40  0001 C CNN "Size"
F 7 "1%" V 3475 4300 40  0001 C CNN "Tolerance"
	1    3150 4300
	0    -1   1    0   
$EndComp
$Comp
L R R223
U 1 1 589E6A40
P 3150 3800
F 0 "R223" V 3070 3800 40  0000 C CNN
F 1 "100k" V 3157 3801 40  0000 C CNN
F 2 "MyKiCadLibs-Footprints:SMD-1206" V 3080 3800 30  0001 C CNN
F 3 "" V 3070 3800 30  0000 C CNN
F 4 "250mW" V 3250 3800 40  0001 C CNN "Power"
F 5 "MELF0204 1% =>250mW or 1206 1% =>250mW" V 3395 3800 40  0001 C CNN "Description"
F 6 "1206" V 3325 3800 40  0001 C CNN "Size"
F 7 "1%" V 3475 3800 40  0001 C CNN "Tolerance"
	1    3150 3800
	0    -1   -1   0   
$EndComp
$Comp
L R R227
U 1 1 589E6A35
P 3250 4450
F 0 "R227" V 3170 4450 40  0000 C CNN
F 1 "100" V 3257 4451 40  0000 C CNN
F 2 "MyKiCadLibs-Footprints:SMD-1206" V 3180 4450 30  0001 C CNN
F 3 "" V 3170 4450 30  0000 C CNN
F 4 "250mW" V 3350 4450 40  0001 C CNN "Power"
F 5 "MELF0204 1% =>250mW or 1206 1% =>250mW" V 3495 4450 40  0001 C CNN "Description"
F 6 "1206" V 3425 4450 40  0001 C CNN "Size"
F 7 "1%" V 3575 4450 40  0001 C CNN "Tolerance"
	1    3250 4450
	0    1    -1   0   
$EndComp
$Comp
L R R220
U 1 1 589E6A2A
P 3250 3600
F 0 "R220" V 3170 3600 40  0000 C CNN
F 1 "100" V 3257 3601 40  0000 C CNN
F 2 "MyKiCadLibs-Footprints:SMD-1206" V 3180 3600 30  0001 C CNN
F 3 "" V 3170 3600 30  0000 C CNN
F 4 "250mW" V 3350 3600 40  0001 C CNN "Power"
F 5 "MELF0204 1% =>250mW or 1206 1% =>250mW" V 3495 3600 40  0001 C CNN "Description"
F 6 "1206" V 3425 3600 40  0001 C CNN "Size"
F 7 "1%" V 3575 3600 40  0001 C CNN "Tolerance"
	1    3250 3600
	0    1    -1   0   
$EndComp
$Comp
L R R216
U 1 1 589E69FD
P 3150 3200
F 0 "R216" V 3070 3200 40  0000 C CNN
F 1 "100k" V 3157 3201 40  0000 C CNN
F 2 "MyKiCadLibs-Footprints:SMD-1206" V 3080 3200 30  0001 C CNN
F 3 "" V 3070 3200 30  0000 C CNN
F 4 "250mW" V 3250 3200 40  0001 C CNN "Power"
F 5 "MELF0204 1% =>250mW or 1206 1% =>250mW" V 3395 3200 40  0001 C CNN "Description"
F 6 "1206" V 3325 3200 40  0001 C CNN "Size"
F 7 "1%" V 3475 3200 40  0001 C CNN "Tolerance"
	1    3150 3200
	0    -1   1    0   
$EndComp
$Comp
L R R213
U 1 1 589E69F2
P 3150 2700
F 0 "R213" V 3070 2700 40  0000 C CNN
F 1 "100k" V 3157 2701 40  0000 C CNN
F 2 "MyKiCadLibs-Footprints:SMD-1206" V 3080 2700 30  0001 C CNN
F 3 "" V 3070 2700 30  0000 C CNN
F 4 "250mW" V 3250 2700 40  0001 C CNN "Power"
F 5 "MELF0204 1% =>250mW or 1206 1% =>250mW" V 3395 2700 40  0001 C CNN "Description"
F 6 "1206" V 3325 2700 40  0001 C CNN "Size"
F 7 "1%" V 3475 2700 40  0001 C CNN "Tolerance"
	1    3150 2700
	0    -1   -1   0   
$EndComp
$Comp
L R R217
U 1 1 589E69E7
P 3250 3350
F 0 "R217" V 3170 3350 40  0000 C CNN
F 1 "100" V 3257 3351 40  0000 C CNN
F 2 "MyKiCadLibs-Footprints:SMD-1206" V 3180 3350 30  0001 C CNN
F 3 "" V 3170 3350 30  0000 C CNN
F 4 "250mW" V 3350 3350 40  0001 C CNN "Power"
F 5 "MELF0204 1% =>250mW or 1206 1% =>250mW" V 3495 3350 40  0001 C CNN "Description"
F 6 "1206" V 3425 3350 40  0001 C CNN "Size"
F 7 "1%" V 3575 3350 40  0001 C CNN "Tolerance"
	1    3250 3350
	0    1    -1   0   
$EndComp
$Comp
L R R210
U 1 1 589E69DC
P 3250 2500
F 0 "R210" V 3170 2500 40  0000 C CNN
F 1 "100" V 3257 2501 40  0000 C CNN
F 2 "MyKiCadLibs-Footprints:SMD-1206" V 3180 2500 30  0001 C CNN
F 3 "" V 3170 2500 30  0000 C CNN
F 4 "250mW" V 3350 2500 40  0001 C CNN "Power"
F 5 "MELF0204 1% =>250mW or 1206 1% =>250mW" V 3495 2500 40  0001 C CNN "Description"
F 6 "1206" V 3425 2500 40  0001 C CNN "Size"
F 7 "1%" V 3575 2500 40  0001 C CNN "Tolerance"
	1    3250 2500
	0    1    -1   0   
$EndComp
$Comp
L C C206
U 1 1 589E69BB
P 3650 1850
F 0 "C206" H 3650 1950 40  0000 L CNN
F 1 "1n" H 3660 1765 40  0000 L CNN
F 2 "MyKiCadLibs-Footprints:SMD-0805" H 3688 1700 30  0001 C CNN
F 3 "" H 3650 1950 60  0000 C CNN
F 4 "50V" H 3665 1695 40  0000 L CNN "Voltage"
F 5 "C0G" H 3665 1625 40  0000 L CNN "Type"
F 6 "Ceramic capacitor" H 3650 2150 40  0001 L CNN "Description"
F 7 "5%" H 3720 1485 40  0001 C CNN "Tolerance"
F 8 "0805" H 3660 1555 40  0001 L CNN "Size"
	1    3650 1850
	1    0    0    -1  
$EndComp
$Comp
L R R206
U 1 1 589E69AF
P 3150 2100
F 0 "R206" V 3070 2100 40  0000 C CNN
F 1 "100k" V 3157 2101 40  0000 C CNN
F 2 "MyKiCadLibs-Footprints:SMD-1206" V 3080 2100 30  0001 C CNN
F 3 "" V 3070 2100 30  0000 C CNN
F 4 "250mW" V 3250 2100 40  0001 C CNN "Power"
F 5 "MELF0204 1% =>250mW or 1206 1% =>250mW" V 3395 2100 40  0001 C CNN "Description"
F 6 "1206" V 3325 2100 40  0001 C CNN "Size"
F 7 "1%" V 3475 2100 40  0001 C CNN "Tolerance"
	1    3150 2100
	0    -1   1    0   
$EndComp
$Comp
L R R203
U 1 1 589E69A4
P 3150 1600
F 0 "R203" V 3070 1600 40  0000 C CNN
F 1 "100k" V 3157 1601 40  0000 C CNN
F 2 "MyKiCadLibs-Footprints:SMD-1206" V 3080 1600 30  0001 C CNN
F 3 "" V 3070 1600 30  0000 C CNN
F 4 "250mW" V 3250 1600 40  0001 C CNN "Power"
F 5 "MELF0204 1% =>250mW or 1206 1% =>250mW" V 3395 1600 40  0001 C CNN "Description"
F 6 "1206" V 3325 1600 40  0001 C CNN "Size"
F 7 "1%" V 3475 1600 40  0001 C CNN "Tolerance"
	1    3150 1600
	0    -1   -1   0   
$EndComp
$Comp
L R R207
U 1 1 589E6999
P 3250 2250
F 0 "R207" V 3170 2250 40  0000 C CNN
F 1 "100" V 3257 2251 40  0000 C CNN
F 2 "MyKiCadLibs-Footprints:SMD-1206" V 3180 2250 30  0001 C CNN
F 3 "" V 3170 2250 30  0000 C CNN
F 4 "250mW" V 3350 2250 40  0001 C CNN "Power"
F 5 "MELF0204 1% =>250mW or 1206 1% =>250mW" V 3495 2250 40  0001 C CNN "Description"
F 6 "1206" V 3425 2250 40  0001 C CNN "Size"
F 7 "1%" V 3575 2250 40  0001 C CNN "Tolerance"
	1    3250 2250
	0    1    -1   0   
$EndComp
$Comp
L R R201
U 1 1 589E698E
P 3250 1400
F 0 "R201" V 3170 1400 40  0000 C CNN
F 1 "100" V 3257 1401 40  0000 C CNN
F 2 "MyKiCadLibs-Footprints:SMD-1206" V 3180 1400 30  0001 C CNN
F 3 "" V 3170 1400 30  0000 C CNN
F 4 "250mW" V 3350 1400 40  0001 C CNN "Power"
F 5 "MELF0204 1% =>250mW or 1206 1% =>250mW" V 3495 1400 40  0001 C CNN "Description"
F 6 "1206" V 3425 1400 40  0001 C CNN "Size"
F 7 "1%" V 3575 1400 40  0001 C CNN "Tolerance"
	1    3250 1400
	0    1    1    0   
$EndComp
$Comp
L CONN_02X10 P201
U 1 1 589E696D
P 1700 3500
F 0 "P201" H 1700 4050 50  0000 C CNN
F 1 "CONN_02X10" V 1700 3550 50  0000 C CNN
F 2 "MyKiCadLibs-Footprints:CONN_DIL_2X10_BOX_1MM" H 900 2600 60  0001 C CNN
F 3 "" H 900 2600 60  0000 C CNN
F 4 "2x10 2.54mm pitch box header" H 1700 2950 40  0001 C CNN "Description"
	1    1700 3500
	1    0    0    -1  
$EndComp
$Comp
L IC-OPAMP-DUAL-SOIC8 U201
U 1 1 58AF2C58
P 5550 1800
F 0 "U201" H 5600 2050 60  0000 L CNN
F 1 "TLE2082" H 5600 1950 60  0000 L CNN
F 2 "MyKiCadLibs-Footprints:IC_SOIC_8" H 5500 1550 60  0001 C CNN
F 3 "" H 5600 1650 60  0001 C CNN
	1    5550 1800
	1    0    0    -1  
$EndComp
$Comp
L IC-OPAMP-DUAL-SOIC8 U201
U 2 1 58AF2CF3
P 5550 2900
F 0 "U201" H 5650 3100 60  0000 L CNN
F 1 "TLE2082" H 5650 3000 60  0000 L CNN
F 2 "MyKiCadLibs-Footprints:IC_SOIC_8" H 5500 2650 60  0001 C CNN
F 3 "" H 5600 2750 60  0001 C CNN
	2    5550 2900
	1    0    0    -1  
$EndComp
$Comp
L R R202
U 1 1 58AF4182
P 4050 1400
F 0 "R202" V 3970 1400 40  0000 C CNN
F 1 "1k3" V 4057 1401 40  0000 C CNN
F 2 "MyKiCadLibs-Footprints:SMD-1206" V 3980 1400 30  0001 C CNN
F 3 "" V 3970 1400 30  0000 C CNN
F 4 "250mW" V 4150 1400 40  0001 C CNN "Power"
F 5 "MELF0204 1% =>250mW or 1206 1% =>250mW" V 4295 1400 40  0001 C CNN "Description"
F 6 "1206" V 4225 1400 40  0001 C CNN "Size"
F 7 "1%" V 4375 1400 40  0001 C CNN "Tolerance"
	1    4050 1400
	0    1    1    0   
$EndComp
$Comp
L R R208
U 1 1 58AF4655
P 4050 2250
F 0 "R208" V 3970 2250 40  0000 C CNN
F 1 "1k3" V 4057 2251 40  0000 C CNN
F 2 "MyKiCadLibs-Footprints:SMD-1206" V 3980 2250 30  0001 C CNN
F 3 "" V 3970 2250 30  0000 C CNN
F 4 "250mW" V 4150 2250 40  0001 C CNN "Power"
F 5 "MELF0204 1% =>250mW or 1206 1% =>250mW" V 4295 2250 40  0001 C CNN "Description"
F 6 "1206" V 4225 2250 40  0001 C CNN "Size"
F 7 "1%" V 4375 2250 40  0001 C CNN "Tolerance"
	1    4050 2250
	0    1    1    0   
$EndComp
$Comp
L R R204
U 1 1 58AF4FF6
P 4700 1700
F 0 "R204" V 4620 1700 40  0000 C CNN
F 1 "1k5" V 4707 1701 40  0000 C CNN
F 2 "MyKiCadLibs-Footprints:SMD-1206" V 4630 1700 30  0001 C CNN
F 3 "" V 4620 1700 30  0000 C CNN
F 4 "250mW" V 4800 1700 40  0001 C CNN "Power"
F 5 "MELF0204 1% =>250mW or 1206 1% =>250mW" V 4945 1700 40  0001 C CNN "Description"
F 6 "1206" V 4875 1700 40  0001 C CNN "Size"
F 7 "1%" V 5025 1700 40  0001 C CNN "Tolerance"
	1    4700 1700
	1    0    0    -1  
$EndComp
$Comp
L R R209
U 1 1 58AF59EA
P 6050 2250
F 0 "R209" V 5970 2250 40  0000 C CNN
F 1 "1k5" V 6057 2251 40  0000 C CNN
F 2 "MyKiCadLibs-Footprints:SMD-1206" V 5980 2250 30  0001 C CNN
F 3 "" V 5970 2250 30  0000 C CNN
F 4 "250mW" V 6150 2250 40  0001 C CNN "Power"
F 5 "MELF0204 1% =>250mW or 1206 1% =>250mW" V 6295 2250 40  0001 C CNN "Description"
F 6 "1206" V 6225 2250 40  0001 C CNN "Size"
F 7 "1%" V 6375 2250 40  0001 C CNN "Tolerance"
	1    6050 2250
	0    1    1    0   
$EndComp
Connection ~ 2850 3600
Wire Wire Line
	3000 3600 2850 3600
Connection ~ 1350 3150
Wire Wire Line
	1450 3050 1350 3050
Connection ~ 1350 3250
Wire Wire Line
	1450 3150 1350 3150
Connection ~ 1350 3350
Wire Wire Line
	1350 3250 1450 3250
Connection ~ 1350 3450
Wire Wire Line
	1350 3350 1450 3350
Connection ~ 1350 3550
Wire Wire Line
	1350 3450 1450 3450
Connection ~ 1350 3650
Wire Wire Line
	1350 3550 1450 3550
Connection ~ 1350 3750
Wire Wire Line
	1350 3650 1450 3650
Connection ~ 1350 3850
Wire Wire Line
	1350 3750 1450 3750
Connection ~ 1350 3950
Wire Wire Line
	1350 3850 1450 3850
Wire Wire Line
	1350 3950 1450 3950
Wire Wire Line
	1350 3050 1350 4050
Connection ~ 2050 3950
Wire Wire Line
	2050 3050 1950 3050
Wire Wire Line
	2050 3950 1950 3950
Wire Wire Line
	2050 3050 2050 4050
Wire Wire Line
	2250 3150 1950 3150
Wire Wire Line
	2350 3250 1950 3250
Wire Wire Line
	2450 3350 1950 3350
Wire Wire Line
	3000 3350 2850 3350
Wire Wire Line
	2850 3450 1950 3450
Connection ~ 2850 4300
Wire Wire Line
	2450 3650 2450 4300
Wire Wire Line
	1950 3650 2450 3650
Connection ~ 2850 4700
Wire Wire Line
	2350 3750 2350 4700
Wire Wire Line
	1950 3750 2350 3750
Connection ~ 2850 5550
Wire Wire Line
	2250 3850 2250 5550
Wire Wire Line
	1950 3850 2250 3850
Connection ~ 2850 3350
Connection ~ 2850 2500
Wire Wire Line
	2450 2500 2450 3350
Connection ~ 2850 2250
Wire Wire Line
	2350 2250 2350 3250
Connection ~ 2850 1400
Wire Wire Line
	2250 1400 2250 3150
Wire Wire Line
	2850 4900 2900 4900
Wire Wire Line
	2850 4700 2850 4900
Wire Wire Line
	2350 4700 3000 4700
Wire Wire Line
	2850 5400 2900 5400
Wire Wire Line
	2850 5550 2850 5400
Wire Wire Line
	2250 5550 3000 5550
Wire Wire Line
	3450 5400 3400 5400
Wire Wire Line
	3450 4900 3400 4900
Connection ~ 3450 5000
Wire Wire Line
	3250 5000 3250 5100
Wire Wire Line
	3450 5000 3250 5000
Wire Wire Line
	3450 4900 3450 5400
Wire Wire Line
	2850 3800 2900 3800
Wire Wire Line
	2850 3550 2850 3800
Wire Wire Line
	2850 3550 1950 3550
Wire Wire Line
	2450 4300 2900 4300
Wire Wire Line
	2850 4450 2850 4300
Wire Wire Line
	3000 4450 2850 4450
Wire Wire Line
	3450 4300 3400 4300
Wire Wire Line
	3450 3800 3400 3800
Connection ~ 3450 3900
Wire Wire Line
	3250 3900 3250 4000
Wire Wire Line
	3450 3900 3250 3900
Wire Wire Line
	3450 3800 3450 4300
Wire Wire Line
	2850 2700 2900 2700
Wire Wire Line
	2850 2500 2850 2700
Wire Wire Line
	2450 2500 3000 2500
Wire Wire Line
	2850 3200 2900 3200
Wire Wire Line
	2850 3200 2850 3450
Wire Wire Line
	3450 3200 3400 3200
Wire Wire Line
	3450 2700 3400 2700
Connection ~ 3450 2800
Wire Wire Line
	3250 2800 3250 2900
Wire Wire Line
	3450 2800 3250 2800
Wire Wire Line
	3450 2700 3450 3200
Wire Wire Line
	2850 1600 2900 1600
Wire Wire Line
	2850 1400 2850 1600
Wire Wire Line
	2250 1400 3000 1400
Wire Wire Line
	2850 2100 2900 2100
Wire Wire Line
	2850 2250 2850 2100
Wire Wire Line
	2350 2250 3000 2250
Wire Wire Line
	3450 2100 3400 2100
Wire Wire Line
	3450 1600 3400 1600
Connection ~ 3450 1700
Wire Wire Line
	3250 1700 3250 1800
Wire Wire Line
	3450 1700 3250 1700
Wire Wire Line
	3450 1600 3450 2100
Connection ~ 3650 2250
Wire Wire Line
	3650 2250 3650 2050
Wire Wire Line
	3650 1400 3650 1650
Connection ~ 3650 1400
Wire Wire Line
	4700 1950 4700 2050
Wire Wire Line
	4300 1400 4900 1400
Wire Wire Line
	4300 2250 5800 2250
Connection ~ 4400 1400
Wire Wire Line
	5050 1700 4900 1700
Wire Wire Line
	4900 1700 4900 1400
Wire Wire Line
	5050 1900 4900 1900
Wire Wire Line
	4900 1900 4900 2250
Connection ~ 4900 2250
Wire Wire Line
	6400 2250 6300 2250
Wire Wire Line
	6400 1800 6400 2250
Wire Wire Line
	6050 1800 6550 1800
$Comp
L R R205
U 1 1 58AF647A
P 6800 1800
F 0 "R205" V 6720 1800 40  0000 C CNN
F 1 "100" V 6807 1801 40  0000 C CNN
F 2 "MyKiCadLibs-Footprints:SMD-1206" V 6730 1800 30  0001 C CNN
F 3 "" V 6720 1800 30  0000 C CNN
F 4 "250mW" V 6900 1800 40  0001 C CNN "Power"
F 5 "MELF0204 1% =>250mW or 1206 1% =>250mW" V 7045 1800 40  0001 C CNN "Description"
F 6 "1206" V 6975 1800 40  0001 C CNN "Size"
F 7 "1%" V 7125 1800 40  0001 C CNN "Tolerance"
	1    6800 1800
	0    1    1    0   
$EndComp
Connection ~ 6400 1800
$Comp
L +9VA #PWR011
U 1 1 58AF6643
P 5550 1400
F 0 "#PWR011" H 5550 1275 50  0001 C CNN
F 1 "+9VA" H 5550 1550 50  0000 C CNN
F 2 "" H 5550 1400 50  0000 C CNN
F 3 "" H 5550 1400 50  0000 C CNN
	1    5550 1400
	1    0    0    -1  
$EndComp
Wire Wire Line
	5550 1400 5550 1450
Wire Wire Line
	5550 2350 5550 2150
$Comp
L C C208
U 1 1 58AF70F8
P 7400 2050
F 0 "C208" V 7350 1800 40  0000 L CNN
F 1 "100n" V 7350 2150 40  0000 L CNN
F 2 "MyKiCadLibs-Footprints:CAP_TH_5mm_W3.5mm" H 7438 1900 30  0001 C CNN
F 3 "" H 7400 2150 60  0000 C CNN
F 4 "63V" V 7450 2150 40  0000 L CNN "Voltage"
F 5 "MKT" V 7450 1850 40  0000 L CNN "Type"
F 6 "Polyester film capacitor" H 7400 2350 40  0001 L CNN "Description"
F 7 "5%" H 7470 1685 40  0001 C CNN "Tolerance"
F 8 "5mm" H 7410 1755 40  0001 L CNN "Size"
	1    7400 2050
	0    1    1    0   
$EndComp
Wire Wire Line
	3500 1400 3800 1400
Wire Wire Line
	3500 2250 3800 2250
Wire Wire Line
	7050 1800 7200 1800
Wire Wire Line
	7200 2050 7100 2050
Wire Wire Line
	7100 2050 7100 1800
Connection ~ 7100 1800
Wire Wire Line
	7600 2050 7750 2050
Wire Wire Line
	7750 2050 7750 1800
Wire Wire Line
	7600 1800 8000 1800
Wire Wire Line
	4400 1900 4400 2000
Wire Wire Line
	4400 2000 4700 2000
Connection ~ 4700 2000
Wire Wire Line
	4400 1500 4400 1400
Wire Wire Line
	4700 1450 4700 1400
Connection ~ 4700 1400
Wire Wire Line
	5850 2000 5700 2000
Wire Wire Line
	5700 2000 5700 2250
Connection ~ 5700 2250
Wire Wire Line
	6250 2000 6400 2000
Connection ~ 6400 2000
$Comp
L POT_DUAL VR201
U 1 1 58AF98B1
P 8000 2150
F 0 "VR201" V 7920 2150 40  0000 C CNN
F 1 "100k" V 8007 2151 40  0000 C CNN
F 2 "MyKiCadLibs-Footprints:POT_DUAL_16mm_17mm_20mm" V 7930 2150 30  0001 C CNN
F 3 "" V 7920 2150 30  0000 C CNN
F 4 "Any 16mm, 17mm or 20mm dual gang potentiometer" V 7850 2150 40  0001 C CNN "Description"
	1    8000 2150
	1    0    0    -1  
$EndComp
$Comp
L POT_DUAL VR201
U 2 1 58AF993F
P 8000 3250
F 0 "VR201" V 7920 3250 40  0000 C CNN
F 1 "100k" V 8007 3251 40  0000 C CNN
F 2 "MyKiCadLibs-Footprints:POT_DUAL_16mm_17mm_20mm" V 7930 3250 30  0001 C CNN
F 3 "" V 7920 3250 30  0000 C CNN
F 4 "Any 16mm, 17mm or 20mm dual gang potentiometer" V 7850 3250 40  0001 C CNN "Description"
	2    8000 3250
	1    0    0    -1  
$EndComp
$Comp
L GNDD #PWR012
U 1 1 58AF9D1F
P 8000 2500
F 0 "#PWR012" H 8000 2250 50  0001 C CNN
F 1 "GNDD" H 8000 2350 50  0000 C CNN
F 2 "" H 8000 2500 50  0000 C CNN
F 3 "" H 8000 2500 50  0000 C CNN
	1    8000 2500
	1    0    0    -1  
$EndComp
Wire Wire Line
	8000 2500 8000 2400
Wire Wire Line
	8000 1800 8000 1900
Connection ~ 7750 1800
$Comp
L C C209
U 1 1 58AFA6CB
P 9200 2150
F 0 "C209" V 9150 1900 40  0000 L CNN
F 1 "100n" V 9150 2250 40  0000 L CNN
F 2 "MyKiCadLibs-Footprints:CAP_TH_5mm_W3.5mm" H 9238 2000 30  0001 C CNN
F 3 "" H 9200 2250 60  0000 C CNN
F 4 "63V" V 9250 2250 40  0000 L CNN "Voltage"
F 5 "MKT" V 9250 1950 40  0000 L CNN "Type"
F 6 "Polyester film capacitor" H 9200 2450 40  0001 L CNN "Description"
F 7 "5%" H 9270 1785 40  0001 C CNN "Tolerance"
F 8 "5mm" H 9210 1855 40  0001 L CNN "Size"
	1    9200 2150
	0    1    1    0   
$EndComp
$Comp
L CP1 C205
U 1 1 58AFA6D4
P 9200 1800
F 0 "C205" V 9250 1700 40  0000 R CNN
F 1 "100u" V 9250 2000 40  0000 R CNN
F 2 "MyKiCadLibs-Footprints:CAP-TH-D8mmP3.5mm" H 9150 1800 60  0001 C CNN
F 3 "" H 9200 1800 60  0000 C CNN
F 4 "35V" V 9150 1700 40  0000 R CNN "Voltage"
F 5 "Pitch 3.5mm, Diameter 8mm" H 9200 2100 40  0001 L CNN "Size"
F 6 "High quality capacitor, eg Panasonic FC" H 9200 2200 40  0001 L CNN "Description"
	1    9200 1800
	0    1    -1   0   
$EndComp
Wire Wire Line
	8150 2150 9000 2150
Wire Wire Line
	9000 1800 8800 1800
Wire Wire Line
	8800 1800 8800 2150
Connection ~ 8800 2150
Text HLabel 9650 1800 2    60   Output ~ 0
IN_1
Wire Wire Line
	9400 1800 9650 1800
Wire Wire Line
	9400 2150 9550 2150
Wire Wire Line
	9550 2150 9550 1800
Connection ~ 9550 1800
$Comp
L GNDD #PWR013
U 1 1 58AFC40E
P 4700 3150
F 0 "#PWR013" H 4700 2900 50  0001 C CNN
F 1 "GNDD" H 4700 3000 50  0000 C CNN
F 2 "" H 4700 3150 50  0000 C CNN
F 3 "" H 4700 3150 50  0000 C CNN
	1    4700 3150
	1    0    0    -1  
$EndComp
$Comp
L C C214
U 1 1 58AFC419
P 6050 3100
F 0 "C214" V 6000 2850 40  0000 L CNN
F 1 "1n" V 6000 3200 40  0000 L CNN
F 2 "MyKiCadLibs-Footprints:SMD-0805" H 6088 2950 30  0001 C CNN
F 3 "" H 6050 3200 60  0000 C CNN
F 4 "50V" V 6100 3200 40  0000 L CNN "Voltage"
F 5 "C0G" V 6100 2900 40  0000 L CNN "Type"
F 6 "Ceramic capacitor" H 6050 3400 40  0001 L CNN "Description"
F 7 "5%" H 6120 2735 40  0001 C CNN "Tolerance"
F 8 "0805" H 6060 2805 40  0001 L CNN "Size"
	1    6050 3100
	0    1    1    0   
$EndComp
$Comp
L C C210
U 1 1 58AFC424
P 4400 2800
F 0 "C210" V 4350 2550 40  0000 L CNN
F 1 "1n" V 4350 2900 40  0000 L CNN
F 2 "MyKiCadLibs-Footprints:SMD-0805" H 4438 2650 30  0001 C CNN
F 3 "" H 4400 2900 60  0000 C CNN
F 4 "50V" V 4450 2900 40  0000 L CNN "Voltage"
F 5 "C0G" V 4450 2600 40  0000 L CNN "Type"
F 6 "Ceramic capacitor" H 4400 3100 40  0001 L CNN "Description"
F 7 "5%" H 4470 2435 40  0001 C CNN "Tolerance"
F 8 "0805" H 4410 2505 40  0001 L CNN "Size"
	1    4400 2800
	1    0    0    -1  
$EndComp
$Comp
L C C213
U 1 1 58AFC42F
P 3650 2950
F 0 "C213" H 3650 3050 40  0000 L CNN
F 1 "1n" H 3660 2865 40  0000 L CNN
F 2 "MyKiCadLibs-Footprints:SMD-0805" H 3688 2800 30  0001 C CNN
F 3 "" H 3650 3050 60  0000 C CNN
F 4 "50V" H 3665 2795 40  0000 L CNN "Voltage"
F 5 "C0G" H 3665 2725 40  0000 L CNN "Type"
F 6 "Ceramic capacitor" H 3650 3250 40  0001 L CNN "Description"
F 7 "5%" H 3720 2585 40  0001 C CNN "Tolerance"
F 8 "0805" H 3660 2655 40  0001 L CNN "Size"
	1    3650 2950
	1    0    0    -1  
$EndComp
$Comp
L R R211
U 1 1 58AFC43F
P 4050 2500
F 0 "R211" V 3970 2500 40  0000 C CNN
F 1 "1k3" V 4057 2501 40  0000 C CNN
F 2 "MyKiCadLibs-Footprints:SMD-1206" V 3980 2500 30  0001 C CNN
F 3 "" V 3970 2500 30  0000 C CNN
F 4 "250mW" V 4150 2500 40  0001 C CNN "Power"
F 5 "MELF0204 1% =>250mW or 1206 1% =>250mW" V 4295 2500 40  0001 C CNN "Description"
F 6 "1206" V 4225 2500 40  0001 C CNN "Size"
F 7 "1%" V 4375 2500 40  0001 C CNN "Tolerance"
	1    4050 2500
	0    1    1    0   
$EndComp
$Comp
L R R218
U 1 1 58AFC449
P 4050 3350
F 0 "R218" V 3970 3350 40  0000 C CNN
F 1 "1k3" V 4057 3351 40  0000 C CNN
F 2 "MyKiCadLibs-Footprints:SMD-1206" V 3980 3350 30  0001 C CNN
F 3 "" V 3970 3350 30  0000 C CNN
F 4 "250mW" V 4150 3350 40  0001 C CNN "Power"
F 5 "MELF0204 1% =>250mW or 1206 1% =>250mW" V 4295 3350 40  0001 C CNN "Description"
F 6 "1206" V 4225 3350 40  0001 C CNN "Size"
F 7 "1%" V 4375 3350 40  0001 C CNN "Tolerance"
	1    4050 3350
	0    1    1    0   
$EndComp
$Comp
L R R214
U 1 1 58AFC453
P 4700 2800
F 0 "R214" V 4620 2800 40  0000 C CNN
F 1 "1k5" V 4707 2801 40  0000 C CNN
F 2 "MyKiCadLibs-Footprints:SMD-1206" V 4630 2800 30  0001 C CNN
F 3 "" V 4620 2800 30  0000 C CNN
F 4 "250mW" V 4800 2800 40  0001 C CNN "Power"
F 5 "MELF0204 1% =>250mW or 1206 1% =>250mW" V 4945 2800 40  0001 C CNN "Description"
F 6 "1206" V 4875 2800 40  0001 C CNN "Size"
F 7 "1%" V 5025 2800 40  0001 C CNN "Tolerance"
	1    4700 2800
	1    0    0    -1  
$EndComp
$Comp
L R R219
U 1 1 58AFC45D
P 6050 3350
F 0 "R219" V 5970 3350 40  0000 C CNN
F 1 "1k5" V 6057 3351 40  0000 C CNN
F 2 "MyKiCadLibs-Footprints:SMD-1206" V 5980 3350 30  0001 C CNN
F 3 "" V 5970 3350 30  0000 C CNN
F 4 "250mW" V 6150 3350 40  0001 C CNN "Power"
F 5 "MELF0204 1% =>250mW or 1206 1% =>250mW" V 6295 3350 40  0001 C CNN "Description"
F 6 "1206" V 6225 3350 40  0001 C CNN "Size"
F 7 "1%" V 6375 3350 40  0001 C CNN "Tolerance"
	1    6050 3350
	0    1    1    0   
$EndComp
Connection ~ 3650 3350
Wire Wire Line
	3650 3350 3650 3150
Wire Wire Line
	3650 2500 3650 2750
Connection ~ 3650 2500
Wire Wire Line
	4700 3050 4700 3150
Wire Wire Line
	4300 2500 4900 2500
Wire Wire Line
	4300 3350 5800 3350
Connection ~ 4400 2500
Wire Wire Line
	5050 2800 4900 2800
Wire Wire Line
	4900 2800 4900 2500
Wire Wire Line
	5050 3000 4900 3000
Wire Wire Line
	4900 3000 4900 3350
Connection ~ 4900 3350
Wire Wire Line
	6400 3350 6300 3350
Wire Wire Line
	6400 2900 6400 3350
Wire Wire Line
	6050 2900 6550 2900
$Comp
L R R215
U 1 1 58AFC477
P 6800 2900
F 0 "R215" V 6720 2900 40  0000 C CNN
F 1 "100" V 6807 2901 40  0000 C CNN
F 2 "MyKiCadLibs-Footprints:SMD-1206" V 6730 2900 30  0001 C CNN
F 3 "" V 6720 2900 30  0000 C CNN
F 4 "250mW" V 6900 2900 40  0001 C CNN "Power"
F 5 "MELF0204 1% =>250mW or 1206 1% =>250mW" V 7045 2900 40  0001 C CNN "Description"
F 6 "1206" V 6975 2900 40  0001 C CNN "Size"
F 7 "1%" V 7125 2900 40  0001 C CNN "Tolerance"
	1    6800 2900
	0    1    1    0   
$EndComp
Connection ~ 6400 2900
$Comp
L C C215
U 1 1 58AFC491
P 7400 3150
F 0 "C215" V 7350 2900 40  0000 L CNN
F 1 "100n" V 7350 3250 40  0000 L CNN
F 2 "MyKiCadLibs-Footprints:CAP_TH_5mm_W3.5mm" H 7438 3000 30  0001 C CNN
F 3 "" H 7400 3250 60  0000 C CNN
F 4 "63V" V 7450 3250 40  0000 L CNN "Voltage"
F 5 "MKT" V 7450 2950 40  0000 L CNN "Type"
F 6 "Polyester film capacitor" H 7400 3450 40  0001 L CNN "Description"
F 7 "5%" H 7470 2785 40  0001 C CNN "Tolerance"
F 8 "5mm" H 7410 2855 40  0001 L CNN "Size"
	1    7400 3150
	0    1    1    0   
$EndComp
Wire Wire Line
	3500 2500 3800 2500
Wire Wire Line
	3500 3350 3800 3350
Wire Wire Line
	7050 2900 7200 2900
Wire Wire Line
	7200 3150 7100 3150
Wire Wire Line
	7100 3150 7100 2900
Connection ~ 7100 2900
Wire Wire Line
	7600 3150 7750 3150
Wire Wire Line
	7750 3150 7750 2900
Wire Wire Line
	7600 2900 8000 2900
Wire Wire Line
	4400 3000 4400 3100
Wire Wire Line
	4400 3100 4700 3100
Connection ~ 4700 3100
Wire Wire Line
	4400 2600 4400 2500
Wire Wire Line
	4700 2550 4700 2500
Connection ~ 4700 2500
Wire Wire Line
	5850 3100 5700 3100
Wire Wire Line
	5700 3100 5700 3350
Connection ~ 5700 3350
Wire Wire Line
	6250 3100 6400 3100
Connection ~ 6400 3100
$Comp
L GNDD #PWR014
U 1 1 58AFC4BB
P 8000 3600
F 0 "#PWR014" H 8000 3350 50  0001 C CNN
F 1 "GNDD" H 8000 3450 50  0000 C CNN
F 2 "" H 8000 3600 50  0000 C CNN
F 3 "" H 8000 3600 50  0000 C CNN
	1    8000 3600
	1    0    0    -1  
$EndComp
Wire Wire Line
	8000 3600 8000 3500
Wire Wire Line
	8000 2900 8000 3000
Connection ~ 7750 2900
$Comp
L C C216
U 1 1 58AFC4C9
P 9200 3250
F 0 "C216" V 9150 3000 40  0000 L CNN
F 1 "100n" V 9150 3350 40  0000 L CNN
F 2 "MyKiCadLibs-Footprints:CAP_TH_5mm_W3.5mm" H 9238 3100 30  0001 C CNN
F 3 "" H 9200 3350 60  0000 C CNN
F 4 "63V" V 9250 3350 40  0000 L CNN "Voltage"
F 5 "MKT" V 9250 3050 40  0000 L CNN "Type"
F 6 "Polyester film capacitor" H 9200 3550 40  0001 L CNN "Description"
F 7 "5%" H 9270 2885 40  0001 C CNN "Tolerance"
F 8 "5mm" H 9210 2955 40  0001 L CNN "Size"
	1    9200 3250
	0    1    1    0   
$EndComp
$Comp
L CP1 C212
U 1 1 58AFC4D2
P 9200 2900
F 0 "C212" V 9250 2800 40  0000 R CNN
F 1 "100u" V 9250 3100 40  0000 R CNN
F 2 "MyKiCadLibs-Footprints:CAP-TH-D8mmP3.5mm" H 9150 2900 60  0001 C CNN
F 3 "" H 9200 2900 60  0000 C CNN
F 4 "35V" V 9150 2800 40  0000 R CNN "Voltage"
F 5 "Pitch 3.5mm, Diameter 8mm" H 9200 3200 40  0001 L CNN "Size"
F 6 "High quality capacitor, eg Panasonic FC" H 9200 3300 40  0001 L CNN "Description"
	1    9200 2900
	0    1    -1   0   
$EndComp
Wire Wire Line
	8150 3250 9000 3250
Wire Wire Line
	9000 2900 8800 2900
Wire Wire Line
	8800 2900 8800 3250
Connection ~ 8800 3250
Text HLabel 9650 2900 2    60   Output ~ 0
IN_2
Wire Wire Line
	9400 2900 9650 2900
Wire Wire Line
	9400 3250 9550 3250
Wire Wire Line
	9550 3250 9550 2900
Connection ~ 9550 2900
$Comp
L -9VA #PWR015
U 1 1 58AF6817
P 5550 2350
F 0 "#PWR015" H 5550 2225 50  0001 C CNN
F 1 "-9VA" H 5550 2500 50  0000 C CNN
F 2 "" H 5550 2350 50  0000 C CNN
F 3 "" H 5550 2350 50  0000 C CNN
	1    5550 2350
	-1   0    0    1   
$EndComp
$Comp
L R R212
U 1 1 58AFD24B
P 8350 2500
F 0 "R212" V 8270 2500 40  0000 C CNN
F 1 "22k" V 8357 2501 40  0000 C CNN
F 2 "MyKiCadLibs-Footprints:SMD-1206" V 8280 2500 30  0001 C CNN
F 3 "" V 8270 2500 30  0000 C CNN
F 4 "250mW" V 8450 2500 40  0001 C CNN "Power"
F 5 "MELF0204 1% =>250mW or 1206 1% =>250mW" V 8595 2500 40  0001 C CNN "Description"
F 6 "1206" V 8525 2500 40  0001 C CNN "Size"
F 7 "1%" V 8675 2500 40  0001 C CNN "Tolerance"
	1    8350 2500
	-1   0    0    1   
$EndComp
Wire Wire Line
	8350 2250 8350 2150
Connection ~ 8350 2150
$Comp
L GNDD #PWR016
U 1 1 58AFD465
P 8350 2850
F 0 "#PWR016" H 8350 2600 50  0001 C CNN
F 1 "GNDD" H 8350 2700 50  0000 C CNN
F 2 "" H 8350 2850 50  0000 C CNN
F 3 "" H 8350 2850 50  0000 C CNN
	1    8350 2850
	1    0    0    -1  
$EndComp
Wire Wire Line
	8350 2850 8350 2750
$Comp
L R R222
U 1 1 58AFD4BC
P 8350 3600
F 0 "R222" V 8270 3600 40  0000 C CNN
F 1 "22k" V 8357 3601 40  0000 C CNN
F 2 "MyKiCadLibs-Footprints:SMD-1206" V 8280 3600 30  0001 C CNN
F 3 "" V 8270 3600 30  0000 C CNN
F 4 "250mW" V 8450 3600 40  0001 C CNN "Power"
F 5 "MELF0204 1% =>250mW or 1206 1% =>250mW" V 8595 3600 40  0001 C CNN "Description"
F 6 "1206" V 8525 3600 40  0001 C CNN "Size"
F 7 "1%" V 8675 3600 40  0001 C CNN "Tolerance"
	1    8350 3600
	-1   0    0    1   
$EndComp
Wire Wire Line
	8350 3350 8350 3250
$Comp
L GNDD #PWR017
U 1 1 58AFD4C3
P 8350 3950
F 0 "#PWR017" H 8350 3700 50  0001 C CNN
F 1 "GNDD" H 8350 3800 50  0000 C CNN
F 2 "" H 8350 3950 50  0000 C CNN
F 3 "" H 8350 3950 50  0000 C CNN
	1    8350 3950
	1    0    0    -1  
$EndComp
Wire Wire Line
	8350 3950 8350 3850
Connection ~ 8350 3250
Text Notes 8700 2600 0    79   ~ 0
Use linear pot
$Comp
L GNDD #PWR018
U 1 1 58AFEF64
P 4700 4250
F 0 "#PWR018" H 4700 4000 50  0001 C CNN
F 1 "GNDD" H 4700 4100 50  0000 C CNN
F 2 "" H 4700 4250 50  0000 C CNN
F 3 "" H 4700 4250 50  0000 C CNN
	1    4700 4250
	1    0    0    -1  
$EndComp
$Comp
L C C221
U 1 1 58AFEF6F
P 6050 4200
F 0 "C221" V 6000 3950 40  0000 L CNN
F 1 "1n" V 6000 4300 40  0000 L CNN
F 2 "MyKiCadLibs-Footprints:SMD-0805" H 6088 4050 30  0001 C CNN
F 3 "" H 6050 4300 60  0000 C CNN
F 4 "50V" V 6100 4300 40  0000 L CNN "Voltage"
F 5 "C0G" V 6100 4000 40  0000 L CNN "Type"
F 6 "Ceramic capacitor" H 6050 4500 40  0001 L CNN "Description"
F 7 "5%" H 6120 3835 40  0001 C CNN "Tolerance"
F 8 "0805" H 6060 3905 40  0001 L CNN "Size"
	1    6050 4200
	0    1    1    0   
$EndComp
$Comp
L C C217
U 1 1 58AFEF7A
P 4400 3900
F 0 "C217" V 4350 3650 40  0000 L CNN
F 1 "1n" V 4350 4000 40  0000 L CNN
F 2 "MyKiCadLibs-Footprints:SMD-0805" H 4438 3750 30  0001 C CNN
F 3 "" H 4400 4000 60  0000 C CNN
F 4 "50V" V 4450 4000 40  0000 L CNN "Voltage"
F 5 "C0G" V 4450 3700 40  0000 L CNN "Type"
F 6 "Ceramic capacitor" H 4400 4200 40  0001 L CNN "Description"
F 7 "5%" H 4470 3535 40  0001 C CNN "Tolerance"
F 8 "0805" H 4410 3605 40  0001 L CNN "Size"
	1    4400 3900
	1    0    0    -1  
$EndComp
$Comp
L C C220
U 1 1 58AFEF85
P 3650 4050
F 0 "C220" H 3650 4150 40  0000 L CNN
F 1 "1n" H 3660 3965 40  0000 L CNN
F 2 "MyKiCadLibs-Footprints:SMD-0805" H 3688 3900 30  0001 C CNN
F 3 "" H 3650 4150 60  0000 C CNN
F 4 "50V" H 3665 3895 40  0000 L CNN "Voltage"
F 5 "C0G" H 3665 3825 40  0000 L CNN "Type"
F 6 "Ceramic capacitor" H 3650 4350 40  0001 L CNN "Description"
F 7 "5%" H 3720 3685 40  0001 C CNN "Tolerance"
F 8 "0805" H 3660 3755 40  0001 L CNN "Size"
	1    3650 4050
	1    0    0    -1  
$EndComp
$Comp
L IC-OPAMP-DUAL-SOIC8 U202
U 1 1 58AFEF8B
P 5550 4000
F 0 "U202" H 5600 4250 60  0000 L CNN
F 1 "TLE2082" H 5600 4150 60  0000 L CNN
F 2 "MyKiCadLibs-Footprints:IC_SOIC_8" H 5500 3750 60  0001 C CNN
F 3 "" H 5600 3850 60  0001 C CNN
	1    5550 4000
	1    0    0    -1  
$EndComp
$Comp
L R R221
U 1 1 58AFEF9B
P 4050 3600
F 0 "R221" V 3970 3600 40  0000 C CNN
F 1 "1k3" V 4057 3601 40  0000 C CNN
F 2 "MyKiCadLibs-Footprints:SMD-1206" V 3980 3600 30  0001 C CNN
F 3 "" V 3970 3600 30  0000 C CNN
F 4 "250mW" V 4150 3600 40  0001 C CNN "Power"
F 5 "MELF0204 1% =>250mW or 1206 1% =>250mW" V 4295 3600 40  0001 C CNN "Description"
F 6 "1206" V 4225 3600 40  0001 C CNN "Size"
F 7 "1%" V 4375 3600 40  0001 C CNN "Tolerance"
	1    4050 3600
	0    1    1    0   
$EndComp
$Comp
L R R228
U 1 1 58AFEFA5
P 4050 4450
F 0 "R228" V 3970 4450 40  0000 C CNN
F 1 "1k3" V 4057 4451 40  0000 C CNN
F 2 "MyKiCadLibs-Footprints:SMD-1206" V 3980 4450 30  0001 C CNN
F 3 "" V 3970 4450 30  0000 C CNN
F 4 "250mW" V 4150 4450 40  0001 C CNN "Power"
F 5 "MELF0204 1% =>250mW or 1206 1% =>250mW" V 4295 4450 40  0001 C CNN "Description"
F 6 "1206" V 4225 4450 40  0001 C CNN "Size"
F 7 "1%" V 4375 4450 40  0001 C CNN "Tolerance"
	1    4050 4450
	0    1    1    0   
$EndComp
$Comp
L R R224
U 1 1 58AFEFAF
P 4700 3900
F 0 "R224" V 4620 3900 40  0000 C CNN
F 1 "1k5" V 4707 3901 40  0000 C CNN
F 2 "MyKiCadLibs-Footprints:SMD-1206" V 4630 3900 30  0001 C CNN
F 3 "" V 4620 3900 30  0000 C CNN
F 4 "250mW" V 4800 3900 40  0001 C CNN "Power"
F 5 "MELF0204 1% =>250mW or 1206 1% =>250mW" V 4945 3900 40  0001 C CNN "Description"
F 6 "1206" V 4875 3900 40  0001 C CNN "Size"
F 7 "1%" V 5025 3900 40  0001 C CNN "Tolerance"
	1    4700 3900
	1    0    0    -1  
$EndComp
$Comp
L R R229
U 1 1 58AFEFB9
P 6050 4450
F 0 "R229" V 5970 4450 40  0000 C CNN
F 1 "1k5" V 6057 4451 40  0000 C CNN
F 2 "MyKiCadLibs-Footprints:SMD-1206" V 5980 4450 30  0001 C CNN
F 3 "" V 5970 4450 30  0000 C CNN
F 4 "250mW" V 6150 4450 40  0001 C CNN "Power"
F 5 "MELF0204 1% =>250mW or 1206 1% =>250mW" V 6295 4450 40  0001 C CNN "Description"
F 6 "1206" V 6225 4450 40  0001 C CNN "Size"
F 7 "1%" V 6375 4450 40  0001 C CNN "Tolerance"
	1    6050 4450
	0    1    1    0   
$EndComp
Connection ~ 3650 4450
Wire Wire Line
	3650 4450 3650 4250
Wire Wire Line
	3650 3600 3650 3850
Connection ~ 3650 3600
Wire Wire Line
	4700 4150 4700 4250
Wire Wire Line
	4300 3600 4900 3600
Wire Wire Line
	4300 4450 5800 4450
Connection ~ 4400 3600
Wire Wire Line
	5050 3900 4900 3900
Wire Wire Line
	4900 3900 4900 3600
Wire Wire Line
	5050 4100 4900 4100
Wire Wire Line
	4900 4100 4900 4450
Connection ~ 4900 4450
Wire Wire Line
	6400 4450 6300 4450
Wire Wire Line
	6400 4000 6400 4450
Wire Wire Line
	6050 4000 6550 4000
$Comp
L R R225
U 1 1 58AFEFD3
P 6800 4000
F 0 "R225" V 6720 4000 40  0000 C CNN
F 1 "100" V 6807 4001 40  0000 C CNN
F 2 "MyKiCadLibs-Footprints:SMD-1206" V 6730 4000 30  0001 C CNN
F 3 "" V 6720 4000 30  0000 C CNN
F 4 "250mW" V 6900 4000 40  0001 C CNN "Power"
F 5 "MELF0204 1% =>250mW or 1206 1% =>250mW" V 7045 4000 40  0001 C CNN "Description"
F 6 "1206" V 6975 4000 40  0001 C CNN "Size"
F 7 "1%" V 7125 4000 40  0001 C CNN "Tolerance"
	1    6800 4000
	0    1    1    0   
$EndComp
Connection ~ 6400 4000
$Comp
L +9VA #PWR019
U 1 1 58AFEFDA
P 5550 3600
F 0 "#PWR019" H 5550 3475 50  0001 C CNN
F 1 "+9VA" H 5550 3750 50  0000 C CNN
F 2 "" H 5550 3600 50  0000 C CNN
F 3 "" H 5550 3600 50  0000 C CNN
	1    5550 3600
	1    0    0    -1  
$EndComp
Wire Wire Line
	5550 3600 5550 3650
Wire Wire Line
	5550 4550 5550 4350
$Comp
L C C222
U 1 1 58AFEFE7
P 7400 4250
F 0 "C222" V 7350 4000 40  0000 L CNN
F 1 "100n" V 7350 4350 40  0000 L CNN
F 2 "MyKiCadLibs-Footprints:CAP_TH_5mm_W3.5mm" H 7438 4100 30  0001 C CNN
F 3 "" H 7400 4350 60  0000 C CNN
F 4 "63V" V 7450 4350 40  0000 L CNN "Voltage"
F 5 "MKT" V 7450 4050 40  0000 L CNN "Type"
F 6 "Polyester film capacitor" H 7400 4550 40  0001 L CNN "Description"
F 7 "5%" H 7470 3885 40  0001 C CNN "Tolerance"
F 8 "5mm" H 7410 3955 40  0001 L CNN "Size"
	1    7400 4250
	0    1    1    0   
$EndComp
Wire Wire Line
	3500 3600 3800 3600
Wire Wire Line
	3500 4450 3800 4450
Wire Wire Line
	7050 4000 7200 4000
Wire Wire Line
	7200 4250 7100 4250
Wire Wire Line
	7100 4250 7100 4000
Connection ~ 7100 4000
Wire Wire Line
	7600 4250 7750 4250
Wire Wire Line
	7750 4250 7750 4000
Wire Wire Line
	7600 4000 8000 4000
Wire Wire Line
	4400 4100 4400 4200
Wire Wire Line
	4400 4200 4700 4200
Connection ~ 4700 4200
Wire Wire Line
	4400 3700 4400 3600
Wire Wire Line
	4700 3650 4700 3600
Connection ~ 4700 3600
Wire Wire Line
	5850 4200 5700 4200
Wire Wire Line
	5700 4200 5700 4450
Connection ~ 5700 4450
Wire Wire Line
	6250 4200 6400 4200
Connection ~ 6400 4200
$Comp
L POT_DUAL VR202
U 1 1 58AFF00B
P 8000 4350
F 0 "VR202" V 7920 4350 40  0000 C CNN
F 1 "100k" V 8007 4351 40  0000 C CNN
F 2 "MyKiCadLibs-Footprints:POT_DUAL_16mm_17mm_20mm" V 7930 4350 30  0001 C CNN
F 3 "" V 7920 4350 30  0000 C CNN
F 4 "Any 16mm, 17mm or 20mm dual gang potentiometer" V 7850 4350 40  0001 C CNN "Description"
	1    8000 4350
	1    0    0    -1  
$EndComp
$Comp
L POT_DUAL VR202
U 2 1 58AFF012
P 8000 5450
F 0 "VR202" V 7920 5450 40  0000 C CNN
F 1 "100k" V 8007 5451 40  0000 C CNN
F 2 "MyKiCadLibs-Footprints:POT_DUAL_16mm_17mm_20mm" V 7930 5450 30  0001 C CNN
F 3 "" V 7920 5450 30  0000 C CNN
F 4 "Any 16mm, 17mm or 20mm dual gang potentiometer" V 7850 5450 40  0001 C CNN "Description"
	2    8000 5450
	1    0    0    -1  
$EndComp
$Comp
L GNDD #PWR020
U 1 1 58AFF018
P 8000 4700
F 0 "#PWR020" H 8000 4450 50  0001 C CNN
F 1 "GNDD" H 8000 4550 50  0000 C CNN
F 2 "" H 8000 4700 50  0000 C CNN
F 3 "" H 8000 4700 50  0000 C CNN
	1    8000 4700
	1    0    0    -1  
$EndComp
Wire Wire Line
	8000 4700 8000 4600
Wire Wire Line
	8000 4000 8000 4100
Connection ~ 7750 4000
$Comp
L C C223
U 1 1 58AFF026
P 9200 4350
F 0 "C223" V 9150 4100 40  0000 L CNN
F 1 "100n" V 9150 4450 40  0000 L CNN
F 2 "MyKiCadLibs-Footprints:CAP_TH_5mm_W3.5mm" H 9238 4200 30  0001 C CNN
F 3 "" H 9200 4450 60  0000 C CNN
F 4 "63V" V 9250 4450 40  0000 L CNN "Voltage"
F 5 "MKT" V 9250 4150 40  0000 L CNN "Type"
F 6 "Polyester film capacitor" H 9200 4650 40  0001 L CNN "Description"
F 7 "5%" H 9270 3985 40  0001 C CNN "Tolerance"
F 8 "5mm" H 9210 4055 40  0001 L CNN "Size"
	1    9200 4350
	0    1    1    0   
$EndComp
$Comp
L CP1 C219
U 1 1 58AFF02F
P 9200 4000
F 0 "C219" V 9250 3900 40  0000 R CNN
F 1 "100u" V 9250 4200 40  0000 R CNN
F 2 "MyKiCadLibs-Footprints:CAP-TH-D8mmP3.5mm" H 9150 4000 60  0001 C CNN
F 3 "" H 9200 4000 60  0000 C CNN
F 4 "35V" V 9150 3900 40  0000 R CNN "Voltage"
F 5 "Pitch 3.5mm, Diameter 8mm" H 9200 4300 40  0001 L CNN "Size"
F 6 "High quality capacitor, eg Panasonic FC" H 9200 4400 40  0001 L CNN "Description"
	1    9200 4000
	0    1    -1   0   
$EndComp
Wire Wire Line
	8150 4350 9000 4350
Wire Wire Line
	9000 4000 8800 4000
Wire Wire Line
	8800 4000 8800 4350
Connection ~ 8800 4350
Text HLabel 9650 4000 2    60   Output ~ 0
IN_3
Wire Wire Line
	9400 4000 9650 4000
Wire Wire Line
	9400 4350 9550 4350
Wire Wire Line
	9550 4350 9550 4000
Connection ~ 9550 4000
$Comp
L GNDD #PWR021
U 1 1 58AFF03E
P 4700 5350
F 0 "#PWR021" H 4700 5100 50  0001 C CNN
F 1 "GNDD" H 4700 5200 50  0000 C CNN
F 2 "" H 4700 5350 50  0000 C CNN
F 3 "" H 4700 5350 50  0000 C CNN
	1    4700 5350
	1    0    0    -1  
$EndComp
$Comp
L C C228
U 1 1 58AFF049
P 6050 5300
F 0 "C228" V 6000 5050 40  0000 L CNN
F 1 "1n" V 6000 5400 40  0000 L CNN
F 2 "MyKiCadLibs-Footprints:SMD-0805" H 6088 5150 30  0001 C CNN
F 3 "" H 6050 5400 60  0000 C CNN
F 4 "50V" V 6100 5400 40  0000 L CNN "Voltage"
F 5 "C0G" V 6100 5100 40  0000 L CNN "Type"
F 6 "Ceramic capacitor" H 6050 5600 40  0001 L CNN "Description"
F 7 "5%" H 6120 4935 40  0001 C CNN "Tolerance"
F 8 "0805" H 6060 5005 40  0001 L CNN "Size"
	1    6050 5300
	0    1    1    0   
$EndComp
$Comp
L C C224
U 1 1 58AFF054
P 4400 5000
F 0 "C224" V 4350 4750 40  0000 L CNN
F 1 "1n" V 4350 5100 40  0000 L CNN
F 2 "MyKiCadLibs-Footprints:SMD-0805" H 4438 4850 30  0001 C CNN
F 3 "" H 4400 5100 60  0000 C CNN
F 4 "50V" V 4450 5100 40  0000 L CNN "Voltage"
F 5 "C0G" V 4450 4800 40  0000 L CNN "Type"
F 6 "Ceramic capacitor" H 4400 5300 40  0001 L CNN "Description"
F 7 "5%" H 4470 4635 40  0001 C CNN "Tolerance"
F 8 "0805" H 4410 4705 40  0001 L CNN "Size"
	1    4400 5000
	1    0    0    -1  
$EndComp
$Comp
L C C227
U 1 1 58AFF05F
P 3650 5150
F 0 "C227" H 3650 5250 40  0000 L CNN
F 1 "1n" H 3660 5065 40  0000 L CNN
F 2 "MyKiCadLibs-Footprints:SMD-0805" H 3688 5000 30  0001 C CNN
F 3 "" H 3650 5250 60  0000 C CNN
F 4 "50V" H 3665 4995 40  0000 L CNN "Voltage"
F 5 "C0G" H 3665 4925 40  0000 L CNN "Type"
F 6 "Ceramic capacitor" H 3650 5450 40  0001 L CNN "Description"
F 7 "5%" H 3720 4785 40  0001 C CNN "Tolerance"
F 8 "0805" H 3660 4855 40  0001 L CNN "Size"
	1    3650 5150
	1    0    0    -1  
$EndComp
$Comp
L R R231
U 1 1 58AFF069
P 4050 4700
F 0 "R231" V 3970 4700 40  0000 C CNN
F 1 "1k3" V 4057 4701 40  0000 C CNN
F 2 "MyKiCadLibs-Footprints:SMD-1206" V 3980 4700 30  0001 C CNN
F 3 "" V 3970 4700 30  0000 C CNN
F 4 "250mW" V 4150 4700 40  0001 C CNN "Power"
F 5 "MELF0204 1% =>250mW or 1206 1% =>250mW" V 4295 4700 40  0001 C CNN "Description"
F 6 "1206" V 4225 4700 40  0001 C CNN "Size"
F 7 "1%" V 4375 4700 40  0001 C CNN "Tolerance"
	1    4050 4700
	0    1    1    0   
$EndComp
$Comp
L R R238
U 1 1 58AFF073
P 4050 5550
F 0 "R238" V 3970 5550 40  0000 C CNN
F 1 "1k3" V 4057 5551 40  0000 C CNN
F 2 "MyKiCadLibs-Footprints:SMD-1206" V 3980 5550 30  0001 C CNN
F 3 "" V 3970 5550 30  0000 C CNN
F 4 "250mW" V 4150 5550 40  0001 C CNN "Power"
F 5 "MELF0204 1% =>250mW or 1206 1% =>250mW" V 4295 5550 40  0001 C CNN "Description"
F 6 "1206" V 4225 5550 40  0001 C CNN "Size"
F 7 "1%" V 4375 5550 40  0001 C CNN "Tolerance"
	1    4050 5550
	0    1    1    0   
$EndComp
$Comp
L R R234
U 1 1 58AFF07D
P 4700 5000
F 0 "R234" V 4620 5000 40  0000 C CNN
F 1 "1k5" V 4707 5001 40  0000 C CNN
F 2 "MyKiCadLibs-Footprints:SMD-1206" V 4630 5000 30  0001 C CNN
F 3 "" V 4620 5000 30  0000 C CNN
F 4 "250mW" V 4800 5000 40  0001 C CNN "Power"
F 5 "MELF0204 1% =>250mW or 1206 1% =>250mW" V 4945 5000 40  0001 C CNN "Description"
F 6 "1206" V 4875 5000 40  0001 C CNN "Size"
F 7 "1%" V 5025 5000 40  0001 C CNN "Tolerance"
	1    4700 5000
	1    0    0    -1  
$EndComp
$Comp
L R R239
U 1 1 58AFF087
P 6050 5550
F 0 "R239" V 5970 5550 40  0000 C CNN
F 1 "1k5" V 6057 5551 40  0000 C CNN
F 2 "MyKiCadLibs-Footprints:SMD-1206" V 5980 5550 30  0001 C CNN
F 3 "" V 5970 5550 30  0000 C CNN
F 4 "250mW" V 6150 5550 40  0001 C CNN "Power"
F 5 "MELF0204 1% =>250mW or 1206 1% =>250mW" V 6295 5550 40  0001 C CNN "Description"
F 6 "1206" V 6225 5550 40  0001 C CNN "Size"
F 7 "1%" V 6375 5550 40  0001 C CNN "Tolerance"
	1    6050 5550
	0    1    1    0   
$EndComp
Connection ~ 3650 5550
Wire Wire Line
	3650 5550 3650 5350
Wire Wire Line
	3650 4700 3650 4950
Connection ~ 3650 4700
Wire Wire Line
	4700 5250 4700 5350
Wire Wire Line
	4300 4700 4900 4700
Wire Wire Line
	4300 5550 5800 5550
Connection ~ 4400 4700
Wire Wire Line
	5050 5000 4900 5000
Wire Wire Line
	4900 5000 4900 4700
Wire Wire Line
	5050 5200 4900 5200
Wire Wire Line
	4900 5200 4900 5550
Connection ~ 4900 5550
Wire Wire Line
	6400 5550 6300 5550
Wire Wire Line
	6400 5100 6400 5550
Wire Wire Line
	6050 5100 6550 5100
$Comp
L R R235
U 1 1 58AFF0A1
P 6800 5100
F 0 "R235" V 6720 5100 40  0000 C CNN
F 1 "100" V 6807 5101 40  0000 C CNN
F 2 "MyKiCadLibs-Footprints:SMD-1206" V 6730 5100 30  0001 C CNN
F 3 "" V 6720 5100 30  0000 C CNN
F 4 "250mW" V 6900 5100 40  0001 C CNN "Power"
F 5 "MELF0204 1% =>250mW or 1206 1% =>250mW" V 7045 5100 40  0001 C CNN "Description"
F 6 "1206" V 6975 5100 40  0001 C CNN "Size"
F 7 "1%" V 7125 5100 40  0001 C CNN "Tolerance"
	1    6800 5100
	0    1    1    0   
$EndComp
Connection ~ 6400 5100
$Comp
L C C229
U 1 1 58AFF0AD
P 7400 5350
F 0 "C229" V 7350 5100 40  0000 L CNN
F 1 "100n" V 7350 5450 40  0000 L CNN
F 2 "MyKiCadLibs-Footprints:CAP_TH_5mm_W3.5mm" H 7438 5200 30  0001 C CNN
F 3 "" H 7400 5450 60  0000 C CNN
F 4 "63V" V 7450 5450 40  0000 L CNN "Voltage"
F 5 "MKT" V 7450 5150 40  0000 L CNN "Type"
F 6 "Polyester film capacitor" H 7400 5650 40  0001 L CNN "Description"
F 7 "5%" H 7470 4985 40  0001 C CNN "Tolerance"
F 8 "5mm" H 7410 5055 40  0001 L CNN "Size"
	1    7400 5350
	0    1    1    0   
$EndComp
Wire Wire Line
	3500 4700 3800 4700
Wire Wire Line
	3500 5550 3800 5550
Wire Wire Line
	7050 5100 7200 5100
Wire Wire Line
	7200 5350 7100 5350
Wire Wire Line
	7100 5350 7100 5100
Connection ~ 7100 5100
Wire Wire Line
	7600 5350 7750 5350
Wire Wire Line
	7750 5350 7750 5100
Wire Wire Line
	7600 5100 8000 5100
Wire Wire Line
	4400 5200 4400 5300
Wire Wire Line
	4400 5300 4700 5300
Connection ~ 4700 5300
Wire Wire Line
	4400 4800 4400 4700
Wire Wire Line
	4700 4750 4700 4700
Connection ~ 4700 4700
Wire Wire Line
	5850 5300 5700 5300
Wire Wire Line
	5700 5300 5700 5550
Connection ~ 5700 5550
Wire Wire Line
	6250 5300 6400 5300
Connection ~ 6400 5300
$Comp
L GNDD #PWR022
U 1 1 58AFF0D0
P 8000 5800
F 0 "#PWR022" H 8000 5550 50  0001 C CNN
F 1 "GNDD" H 8000 5650 50  0000 C CNN
F 2 "" H 8000 5800 50  0000 C CNN
F 3 "" H 8000 5800 50  0000 C CNN
	1    8000 5800
	1    0    0    -1  
$EndComp
Wire Wire Line
	8000 5800 8000 5700
Wire Wire Line
	8000 5100 8000 5200
Connection ~ 7750 5100
$Comp
L C C230
U 1 1 58AFF0DE
P 9200 5450
F 0 "C230" V 9150 5200 40  0000 L CNN
F 1 "100n" V 9150 5550 40  0000 L CNN
F 2 "MyKiCadLibs-Footprints:CAP_TH_5mm_W3.5mm" H 9238 5300 30  0001 C CNN
F 3 "" H 9200 5550 60  0000 C CNN
F 4 "63V" V 9250 5550 40  0000 L CNN "Voltage"
F 5 "MKT" V 9250 5250 40  0000 L CNN "Type"
F 6 "Polyester film capacitor" H 9200 5750 40  0001 L CNN "Description"
F 7 "5%" H 9270 5085 40  0001 C CNN "Tolerance"
F 8 "5mm" H 9210 5155 40  0001 L CNN "Size"
	1    9200 5450
	0    1    1    0   
$EndComp
$Comp
L CP1 C226
U 1 1 58AFF0E7
P 9200 5100
F 0 "C226" V 9250 5000 40  0000 R CNN
F 1 "100u" V 9250 5300 40  0000 R CNN
F 2 "MyKiCadLibs-Footprints:CAP-TH-D8mmP3.5mm" H 9150 5100 60  0001 C CNN
F 3 "" H 9200 5100 60  0000 C CNN
F 4 "35V" V 9150 5000 40  0000 R CNN "Voltage"
F 5 "Pitch 3.5mm, Diameter 8mm" H 9200 5400 40  0001 L CNN "Size"
F 6 "High quality capacitor, eg Panasonic FC" H 9200 5500 40  0001 L CNN "Description"
	1    9200 5100
	0    1    -1   0   
$EndComp
Wire Wire Line
	8150 5450 9000 5450
Wire Wire Line
	9000 5100 8800 5100
Wire Wire Line
	8800 5100 8800 5450
Connection ~ 8800 5450
Text HLabel 9650 5100 2    60   Output ~ 0
IN_4
Wire Wire Line
	9400 5100 9650 5100
Wire Wire Line
	9400 5450 9550 5450
Wire Wire Line
	9550 5450 9550 5100
Connection ~ 9550 5100
$Comp
L -9VA #PWR023
U 1 1 58AFF0F6
P 5550 4550
F 0 "#PWR023" H 5550 4425 50  0001 C CNN
F 1 "-9VA" H 5550 4700 50  0000 C CNN
F 2 "" H 5550 4550 50  0000 C CNN
F 3 "" H 5550 4550 50  0000 C CNN
	1    5550 4550
	-1   0    0    1   
$EndComp
$Comp
L R R232
U 1 1 58AFF100
P 8350 4700
F 0 "R232" V 8270 4700 40  0000 C CNN
F 1 "22k" V 8357 4701 40  0000 C CNN
F 2 "MyKiCadLibs-Footprints:SMD-1206" V 8280 4700 30  0001 C CNN
F 3 "" V 8270 4700 30  0000 C CNN
F 4 "250mW" V 8450 4700 40  0001 C CNN "Power"
F 5 "MELF0204 1% =>250mW or 1206 1% =>250mW" V 8595 4700 40  0001 C CNN "Description"
F 6 "1206" V 8525 4700 40  0001 C CNN "Size"
F 7 "1%" V 8675 4700 40  0001 C CNN "Tolerance"
	1    8350 4700
	-1   0    0    1   
$EndComp
Wire Wire Line
	8350 4450 8350 4350
Connection ~ 8350 4350
$Comp
L GNDD #PWR024
U 1 1 58AFF108
P 8350 5050
F 0 "#PWR024" H 8350 4800 50  0001 C CNN
F 1 "GNDD" H 8350 4900 50  0000 C CNN
F 2 "" H 8350 5050 50  0000 C CNN
F 3 "" H 8350 5050 50  0000 C CNN
	1    8350 5050
	1    0    0    -1  
$EndComp
Wire Wire Line
	8350 5050 8350 4950
$Comp
L R R240
U 1 1 58AFF113
P 8350 5800
F 0 "R240" V 8270 5800 40  0000 C CNN
F 1 "22k" V 8357 5801 40  0000 C CNN
F 2 "MyKiCadLibs-Footprints:SMD-1206" V 8280 5800 30  0001 C CNN
F 3 "" V 8270 5800 30  0000 C CNN
F 4 "250mW" V 8450 5800 40  0001 C CNN "Power"
F 5 "MELF0204 1% =>250mW or 1206 1% =>250mW" V 8595 5800 40  0001 C CNN "Description"
F 6 "1206" V 8525 5800 40  0001 C CNN "Size"
F 7 "1%" V 8675 5800 40  0001 C CNN "Tolerance"
	1    8350 5800
	-1   0    0    1   
$EndComp
Wire Wire Line
	8350 5550 8350 5450
$Comp
L GNDD #PWR025
U 1 1 58AFF11A
P 8350 6150
F 0 "#PWR025" H 8350 5900 50  0001 C CNN
F 1 "GNDD" H 8350 6000 50  0000 C CNN
F 2 "" H 8350 6150 50  0000 C CNN
F 3 "" H 8350 6150 50  0000 C CNN
	1    8350 6150
	1    0    0    -1  
$EndComp
Wire Wire Line
	8350 6150 8350 6050
Connection ~ 8350 5450
Text Notes 8700 4800 0    79   ~ 0
Use linear pot
$Comp
L IC-OPAMP-DUAL-SOIC8 U202
U 2 1 58AFFD57
P 5550 5100
F 0 "U202" H 5650 5300 60  0000 L CNN
F 1 "TLE2082" H 5650 5200 60  0000 L CNN
F 2 "MyKiCadLibs-Footprints:IC_SOIC_8" H 5500 4850 60  0001 C CNN
F 3 "" H 5600 4950 60  0001 C CNN
	2    5550 5100
	1    0    0    -1  
$EndComp
$Comp
L C C202
U 1 1 58B10669
P 6700 1100
F 0 "C202" H 6650 950 40  0000 R CNN
F 1 "100n" H 6650 1025 40  0000 R CNN
F 2 "MyKiCadLibs-Footprints:SMD-0805" H 6738 950 30  0001 C CNN
F 3 "" H 6700 1200 60  0000 C CNN
F 4 "50V" H 6650 1250 40  0000 R CNN "Voltage"
F 5 "X7R" H 6650 1175 40  0000 R CNN "Type"
F 6 "Ceramic capacitor" H 6700 1400 40  0001 L CNN "Description"
F 7 "10%" H 6770 735 40  0001 C CNN "Tolerance"
F 8 "0805" H 6710 805 40  0001 L CNN "Size"
	1    6700 1100
	-1   0    0    1   
$EndComp
$Comp
L +9VA #PWR026
U 1 1 58B10670
P 6300 750
F 0 "#PWR026" H 6300 625 50  0001 C CNN
F 1 "+9VA" H 6300 900 50  0000 C CNN
F 2 "" H 6300 750 50  0000 C CNN
F 3 "" H 6300 750 50  0000 C CNN
	1    6300 750 
	1    0    0    -1  
$EndComp
Wire Wire Line
	6300 750  6300 900 
Wire Wire Line
	6700 900  6700 800 
Wire Wire Line
	6700 800  6300 800 
Connection ~ 6300 800 
$Comp
L -9VA #PWR027
U 1 1 58B1067A
P 6300 1400
F 0 "#PWR027" H 6300 1275 50  0001 C CNN
F 1 "-9VA" H 6300 1550 50  0000 C CNN
F 2 "" H 6300 1400 50  0000 C CNN
F 3 "" H 6300 1400 50  0000 C CNN
	1    6300 1400
	-1   0    0    1   
$EndComp
Wire Wire Line
	6700 1300 6700 1350
Wire Wire Line
	6700 1350 6300 1350
Wire Wire Line
	6300 1300 6300 1400
Connection ~ 6300 1350
$Comp
L CP1 C201
U 1 1 58B10687
P 6300 1100
F 0 "C201" H 6175 1200 40  0000 R CNN
F 1 "220u" H 6175 1125 40  0000 R CNN
F 2 "MyKiCadLibs-Footprints:CAP-TH-D8mmP3.5mm" H 6250 1100 60  0001 C CNN
F 3 "" H 6300 1100 60  0000 C CNN
F 4 "35V" H 6175 1050 40  0000 R CNN "Voltage"
F 5 "Pitch 3.5mm, Diameter 8mm" H 6300 1400 40  0001 L CNN "Size"
F 6 "Aluminium electrolytic capacitor" H 6300 1500 40  0001 L CNN "Description"
	1    6300 1100
	-1   0    0    -1  
$EndComp
$Comp
L C C232
U 1 1 58B1075A
P 5650 6650
F 0 "C232" H 5600 6500 40  0000 R CNN
F 1 "100n" H 5600 6575 40  0000 R CNN
F 2 "MyKiCadLibs-Footprints:SMD-0805" H 5688 6500 30  0001 C CNN
F 3 "" H 5650 6750 60  0000 C CNN
F 4 "50V" H 5600 6800 40  0000 R CNN "Voltage"
F 5 "X7R" H 5600 6725 40  0000 R CNN "Type"
F 6 "Ceramic capacitor" H 5650 6950 40  0001 L CNN "Description"
F 7 "10%" H 5720 6285 40  0001 C CNN "Tolerance"
F 8 "0805" H 5660 6355 40  0001 L CNN "Size"
	1    5650 6650
	-1   0    0    1   
$EndComp
$Comp
L +9VA #PWR028
U 1 1 58B10761
P 5250 6300
F 0 "#PWR028" H 5250 6175 50  0001 C CNN
F 1 "+9VA" H 5250 6450 50  0000 C CNN
F 2 "" H 5250 6300 50  0000 C CNN
F 3 "" H 5250 6300 50  0000 C CNN
	1    5250 6300
	1    0    0    -1  
$EndComp
Wire Wire Line
	5250 6300 5250 6450
Wire Wire Line
	5650 6450 5650 6350
Wire Wire Line
	5650 6350 5250 6350
Connection ~ 5250 6350
$Comp
L -9VA #PWR029
U 1 1 58B1076B
P 5250 6950
F 0 "#PWR029" H 5250 6825 50  0001 C CNN
F 1 "-9VA" H 5250 7100 50  0000 C CNN
F 2 "" H 5250 6950 50  0000 C CNN
F 3 "" H 5250 6950 50  0000 C CNN
	1    5250 6950
	-1   0    0    1   
$EndComp
Wire Wire Line
	5650 6850 5650 6900
Wire Wire Line
	5650 6900 5250 6900
Wire Wire Line
	5250 6850 5250 6950
Connection ~ 5250 6900
$Comp
L CP1 C231
U 1 1 58B10778
P 5250 6650
F 0 "C231" H 5125 6750 40  0000 R CNN
F 1 "220u" H 5125 6675 40  0000 R CNN
F 2 "MyKiCadLibs-Footprints:CAP-TH-D8mmP3.5mm" H 5200 6650 60  0001 C CNN
F 3 "" H 5250 6650 60  0000 C CNN
F 4 "35V" H 5125 6600 40  0000 R CNN "Voltage"
F 5 "Pitch 3.5mm, Diameter 8mm" H 5250 6950 40  0001 L CNN "Size"
F 6 "Aluminium electrolytic capacitor" H 5250 7050 40  0001 L CNN "Description"
	1    5250 6650
	-1   0    0    -1  
$EndComp
$Comp
L CP1 C204
U 1 1 58B12C47
P 7400 1800
F 0 "C204" V 7450 1700 40  0000 R CNN
F 1 "100u" V 7450 2000 40  0000 R CNN
F 2 "MyKiCadLibs-Footprints:CAP-TH-D8mmP3.5mm" H 7350 1800 60  0001 C CNN
F 3 "" H 7400 1800 60  0000 C CNN
F 4 "35V" V 7350 1700 40  0000 R CNN "Voltage"
F 5 "Pitch 3.5mm, Diameter 8mm" H 7400 2100 40  0001 L CNN "Size"
F 6 "High quality capacitor, eg Panasonic FC" H 7400 2200 40  0001 L CNN "Description"
	1    7400 1800
	0    -1   1    0   
$EndComp
$Comp
L CP1 C211
U 1 1 58B13391
P 7400 2900
F 0 "C211" V 7450 2800 40  0000 R CNN
F 1 "100u" V 7450 3100 40  0000 R CNN
F 2 "MyKiCadLibs-Footprints:CAP-TH-D8mmP3.5mm" H 7350 2900 60  0001 C CNN
F 3 "" H 7400 2900 60  0000 C CNN
F 4 "35V" V 7350 2800 40  0000 R CNN "Voltage"
F 5 "Pitch 3.5mm, Diameter 8mm" H 7400 3200 40  0001 L CNN "Size"
F 6 "High quality capacitor, eg Panasonic FC" H 7400 3300 40  0001 L CNN "Description"
	1    7400 2900
	0    -1   1    0   
$EndComp
$Comp
L CP1 C218
U 1 1 58B134BA
P 7400 4000
F 0 "C218" V 7450 3900 40  0000 R CNN
F 1 "100u" V 7450 4200 40  0000 R CNN
F 2 "MyKiCadLibs-Footprints:CAP-TH-D8mmP3.5mm" H 7350 4000 60  0001 C CNN
F 3 "" H 7400 4000 60  0000 C CNN
F 4 "35V" V 7350 3900 40  0000 R CNN "Voltage"
F 5 "Pitch 3.5mm, Diameter 8mm" H 7400 4300 40  0001 L CNN "Size"
F 6 "High quality capacitor, eg Panasonic FC" H 7400 4400 40  0001 L CNN "Description"
	1    7400 4000
	0    -1   1    0   
$EndComp
$Comp
L CP1 C225
U 1 1 58B135E8
P 7400 5100
F 0 "C225" V 7450 5000 40  0000 R CNN
F 1 "100u" V 7450 5300 40  0000 R CNN
F 2 "MyKiCadLibs-Footprints:CAP-TH-D8mmP3.5mm" H 7350 5100 60  0001 C CNN
F 3 "" H 7400 5100 60  0000 C CNN
F 4 "35V" V 7350 5000 40  0000 R CNN "Voltage"
F 5 "Pitch 3.5mm, Diameter 8mm" H 7400 5400 40  0001 L CNN "Size"
F 6 "High quality capacitor, eg Panasonic FC" H 7400 5500 40  0001 L CNN "Description"
	1    7400 5100
	0    -1   1    0   
$EndComp
$EndSCHEMATC
